Sample	FastQC_percent_duplicates	FastQC_percent_gc	FastQC_avg_sequence_length	FastQC_total_sequences	FastQC_percent_fails
P8352_101_S29_L003_R1_001	23.6367415347	44.0	126.0	14438106.0	25.0
P8352_101_S29_L003_R2_001	14.9457986227	45.0	126.0	14438106.0	16.6666666667
P8352_101_S29_L004_R1_001	28.7508352556	44.0	126.0	15544201.0	33.3333333333
P8352_101_S29_L004_R2_001	26.9837039834	44.0	126.0	15544201.0	33.3333333333
P8352_102_S1_L001_R1_001	9.93786596522	45.0	126.0	10491019.0	8.33333333333
P8352_102_S1_L001_R2_001	9.94232442436	45.0	126.0	10491019.0	8.33333333333
P8352_102_S1_L002_R1_001	9.86467370331	45.0	126.0	10266281.0	8.33333333333
P8352_102_S1_L002_R2_001	9.7697939448	45.0	126.0	10266281.0	8.33333333333
P8352_103_S40_L004_R1_001	16.1454688662	42.0	126.0	23008245.0	8.33333333333
P8352_103_S40_L004_R2_001	15.6296319059	42.0	126.0	23008245.0	8.33333333333
P8352_103_S40_L005_R1_001	15.7953409772	42.0	126.0	22088410.0	8.33333333333
P8352_103_S40_L005_R2_001	15.836854249	42.0	126.0	22088410.0	8.33333333333
P8352_104_S2_L001_R1_001	10.9790050706	47.0	126.0	12769907.0	16.6666666667
P8352_104_S2_L001_R2_001	11.2002518544	47.0	126.0	12769907.0	16.6666666667
P8352_104_S2_L002_R1_001	10.793560167	47.0	126.0	12550722.0	16.6666666667
P8352_104_S2_L002_R2_001	10.7105352861	47.0	126.0	12550722.0	16.6666666667
P8352_105_S30_L003_R1_001	14.7974606172	45.0	126.0	16181240.0	8.33333333333
P8352_105_S30_L003_R2_001	13.9202752898	45.0	126.0	16181240.0	8.33333333333
P8352_105_S30_L004_R1_001	15.5231250455	45.0	126.0	16383634.0	16.6666666667
P8352_105_S30_L004_R2_001	15.2883387836	45.0	126.0	16383634.0	16.6666666667
P8352_106_S3_L001_R1_001	15.0371658393	49.0	126.0	11562681.0	16.6666666667
P8352_106_S3_L001_R2_001	15.1975628549	49.0	126.0	11562681.0	16.6666666667
P8352_106_S3_L002_R1_001	14.8348543359	49.0	126.0	11387728.0	16.6666666667
P8352_106_S3_L002_R2_001	14.7312668787	49.0	126.0	11387728.0	16.6666666667
P8352_107_S4_L001_R1_001	11.8763062738	47.0	126.0	12310215.0	8.33333333333
P8352_107_S4_L001_R2_001	11.8468728079	47.0	126.0	12310215.0	8.33333333333
P8352_107_S4_L002_R1_001	12.0397135186	47.0	126.0	12227543.0	8.33333333333
P8352_107_S4_L002_R2_001	11.8758271558	47.0	126.0	12227543.0	8.33333333333
P8352_108_S41_L004_R1_001	14.0475297178	45.0	126.0	20319933.0	8.33333333333
P8352_108_S41_L004_R2_001	13.5461515944	45.0	126.0	20319933.0	8.33333333333
P8352_108_S41_L005_R1_001	13.9423807493	45.0	126.0	19342497.0	16.6666666667
P8352_108_S41_L005_R2_001	13.8441506586	45.0	126.0	19342497.0	8.33333333333
P8352_109_S42_L004_R1_001	12.4657295159	42.0	126.0	13098885.0	8.33333333333
P8352_109_S42_L004_R2_001	12.1004493799	42.0	126.0	13098885.0	8.33333333333
P8352_109_S42_L005_R1_001	11.8595894709	42.0	126.0	11897570.0	8.33333333333
P8352_109_S42_L005_R2_001	11.9946329413	42.0	126.0	11897570.0	8.33333333333
P8352_110_S5_L001_R1_001	21.0918837803	45.0	126.0	10698062.0	8.33333333333
P8352_110_S5_L001_R2_001	21.3560995016	45.0	126.0	10698062.0	8.33333333333
P8352_110_S5_L002_R1_001	21.3167304529	45.0	126.0	10623390.0	8.33333333333
P8352_110_S5_L002_R2_001	20.5791987866	45.0	126.0	10623390.0	8.33333333333
P8352_111_S6_L001_R1_001	14.2481424725	44.0	126.0	10777909.0	8.33333333333
P8352_111_S6_L001_R2_001	14.3450979534	44.0	126.0	10777909.0	8.33333333333
P8352_111_S6_L002_R1_001	13.85787876	44.0	126.0	10603206.0	8.33333333333
P8352_111_S6_L002_R2_001	13.655012547	44.0	126.0	10603206.0	8.33333333333
P8352_112_S7_L001_R1_001	11.2362388075	43.0	126.0	11893940.0	16.6666666667
P8352_112_S7_L001_R2_001	11.2554437517	43.0	126.0	11893940.0	16.6666666667
P8352_112_S7_L002_R1_001	11.2406254043	43.0	126.0	11792123.0	16.6666666667
P8352_112_S7_L002_R2_001	11.1806524234	43.0	126.0	11792123.0	16.6666666667
P8352_113_S8_L001_R1_001	13.544171543	44.0	126.0	10603393.0	8.33333333333
P8352_113_S8_L001_R2_001	13.5867966921	44.0	126.0	10603393.0	8.33333333333
P8352_113_S8_L002_R1_001	13.3934672252	44.0	126.0	10449487.0	8.33333333333
P8352_113_S8_L002_R2_001	13.1850724199	44.0	126.0	10449487.0	8.33333333333
P8352_114_S9_L001_R1_001	11.247900142	45.0	126.0	10783393.0	8.33333333333
P8352_114_S9_L001_R2_001	11.2698009142	45.0	126.0	10783393.0	8.33333333333
P8352_114_S9_L002_R1_001	11.1941932028	45.0	126.0	10719957.0	8.33333333333
P8352_114_S9_L002_R2_001	10.8966966825	45.0	126.0	10719957.0	8.33333333333
P8352_115_S43_L004_R1_001	17.2024322092	44.0	126.0	15948985.0	16.6666666667
P8352_115_S43_L004_R2_001	16.1216802624	44.0	126.0	15948985.0	8.33333333333
P8352_115_S43_L005_R1_001	18.1482805127	44.0	126.0	15771042.0	16.6666666667
P8352_115_S43_L005_R2_001	18.0475466053	44.0	126.0	15771042.0	16.6666666667
P8352_116_S10_L001_R1_001	12.2106788155	45.0	126.0	9435996.0	8.33333333333
P8352_116_S10_L001_R2_001	12.3728375327	45.0	126.0	9435996.0	8.33333333333
P8352_116_S10_L002_R1_001	12.0036419899	45.0	126.0	9235588.0	8.33333333333
P8352_116_S10_L002_R2_001	11.8618462548	45.0	126.0	9235588.0	8.33333333333
P8352_117_S31_L003_R1_001	12.9573159507	45.0	126.0	10945172.0	8.33333333333
P8352_117_S31_L003_R2_001	12.7680520371	45.0	126.0	10945172.0	8.33333333333
P8352_117_S31_L004_R1_001	14.9702253255	45.0	126.0	11153202.0	16.6666666667
P8352_117_S31_L004_R2_001	14.8633293649	45.0	126.0	11153202.0	16.6666666667
P8352_118_S11_L001_R1_001	12.7228722256	44.0	126.0	10568647.0	8.33333333333
P8352_118_S11_L001_R2_001	12.7834346268	44.0	126.0	10568647.0	8.33333333333
P8352_118_S11_L002_R1_001	12.5614161393	44.0	126.0	10395629.0	8.33333333333
P8352_118_S11_L002_R2_001	12.5627629704	44.0	126.0	10395629.0	8.33333333333
P8352_119_S44_L004_R1_001	15.2197974035	43.0	126.0	15192750.0	16.6666666667
P8352_119_S44_L004_R2_001	14.7158205997	43.0	126.0	15192750.0	8.33333333333
P8352_119_S44_L005_R1_001	15.6558259159	43.0	126.0	14920407.0	16.6666666667
P8352_119_S44_L005_R2_001	15.6638898165	42.0	126.0	14920407.0	16.6666666667
P8352_120_S12_L001_R1_001	18.5198893951	43.0	126.0	13073170.0	16.6666666667
P8352_120_S12_L001_R2_001	18.7785904399	43.0	126.0	13073170.0	8.33333333333
P8352_120_S12_L002_R1_001	18.4175926944	43.0	126.0	12874156.0	16.6666666667
P8352_120_S12_L002_R2_001	17.4868146633	43.0	126.0	12874156.0	8.33333333333
P8352_121_S13_L001_R1_001	8.29004767514	46.0	126.0	13148806.0	8.33333333333
P8352_121_S13_L001_R2_001	8.29701068225	46.0	126.0	13148806.0	8.33333333333
P8352_121_S13_L002_R1_001	8.36591598996	46.0	126.0	13067620.0	8.33333333333
P8352_121_S13_L002_R2_001	7.96868211374	46.0	126.0	13067620.0	8.33333333333
P8352_122_S45_L004_R1_001	16.4693249407	44.0	126.0	17174644.0	16.6666666667
P8352_122_S45_L004_R2_001	15.732932122	44.0	126.0	17174644.0	8.33333333333
P8352_122_S45_L005_R1_001	16.9647082239	44.0	126.0	16809420.0	16.6666666667
P8352_122_S45_L005_R2_001	16.8542587851	44.0	126.0	16809420.0	16.6666666667
P8352_123_S14_L001_R1_001	13.6280688591	44.0	126.0	8403670.0	8.33333333333
P8352_123_S14_L001_R2_001	13.8093914841	44.0	126.0	8403670.0	8.33333333333
P8352_123_S14_L002_R1_001	13.1413975938	44.0	126.0	8234422.0	8.33333333333
P8352_123_S14_L002_R2_001	12.9568163827	44.0	126.0	8234422.0	8.33333333333
P8352_124_S32_L003_R1_001	18.5243307206	45.0	126.0	18708228.0	8.33333333333
P8352_124_S32_L003_R2_001	17.7218118301	45.0	126.0	18708228.0	8.33333333333
P8352_124_S32_L004_R1_001	19.1345438394	45.0	126.0	19221122.0	16.6666666667
P8352_124_S32_L004_R2_001	19.060794832	45.0	126.0	19221122.0	16.6666666667
P8352_125_S15_L001_R1_001	21.8244585254	40.0	126.0	11862762.0	8.33333333333
P8352_125_S15_L001_R2_001	22.1683469355	40.0	126.0	11862762.0	8.33333333333
P8352_125_S15_L002_R1_001	21.6224438189	40.0	126.0	11668478.0	8.33333333333
P8352_125_S15_L002_R2_001	21.737939923	40.0	126.0	11668478.0	8.33333333333
P8352_126_S46_L004_R1_001	21.8277203765	45.0	126.0	16933994.0	16.6666666667
P8352_126_S46_L004_R2_001	21.4682438273	45.0	126.0	16933994.0	8.33333333333
P8352_126_S46_L005_R1_001	21.8290809622	45.0	126.0	16486897.0	16.6666666667
P8352_126_S46_L005_R2_001	22.0203882979	45.0	126.0	16486897.0	16.6666666667
P8352_127_S16_L001_R1_001	14.7645467601	43.0	126.0	11986839.0	8.33333333333
P8352_127_S16_L001_R2_001	14.6777696371	43.0	126.0	11986839.0	8.33333333333
P8352_127_S16_L002_R1_001	14.5237947107	43.0	126.0	11809351.0	8.33333333333
P8352_127_S16_L002_R2_001	14.5062042012	43.0	126.0	11809351.0	8.33333333333
P8352_128_S17_L001_R1_001	22.6169282891	45.0	126.0	13711723.0	8.33333333333
P8352_128_S17_L001_R2_001	22.9331807292	45.0	126.0	13711723.0	8.33333333333
P8352_128_S17_L002_R1_001	23.0010133869	45.0	126.0	13627984.0	8.33333333333
P8352_128_S17_L002_R2_001	22.899374038	45.0	126.0	13627984.0	8.33333333333
P8352_129_S33_L003_R1_001	14.476243524	44.0	126.0	14569089.0	16.6666666667
P8352_129_S33_L003_R2_001	11.28792678	44.0	126.0	14569089.0	8.33333333333
P8352_129_S33_L004_R1_001	16.6853076303	43.0	126.0	15278599.0	16.6666666667
P8352_129_S33_L004_R2_001	15.9939890624	44.0	126.0	15278599.0	16.6666666667
P8352_130_S34_L003_R1_001	13.7885690972	43.0	126.0	14187662.0	8.33333333333
P8352_130_S34_L003_R2_001	13.6309241426	43.0	126.0	14187662.0	8.33333333333
P8352_130_S34_L004_R1_001	13.5607659408	43.0	126.0	13858990.0	8.33333333333
P8352_130_S34_L004_R2_001	13.7914588385	43.0	126.0	13858990.0	8.33333333333
P8352_131_S47_L004_R1_001	17.330664476	45.0	126.0	15880531.0	8.33333333333
P8352_131_S47_L004_R2_001	17.0159848388	45.0	126.0	15880531.0	8.33333333333
P8352_131_S47_L005_R1_001	17.3728773866	45.0	126.0	15367794.0	8.33333333333
P8352_131_S47_L005_R2_001	17.351062471	45.0	126.0	15367794.0	8.33333333333
P8352_132_S18_L002_R1_001	15.5194071742	42.0	126.0	12599576.0	25.0
P8352_132_S18_L002_R2_001	15.9961146761	42.0	126.0	12599576.0	8.33333333333
P8352_132_S18_L003_R1_001	16.5282439181	42.0	126.0	13505500.0	16.6666666667
P8352_132_S18_L003_R2_001	16.8701770544	42.0	126.0	13505500.0	8.33333333333
P8352_133_S35_L003_R1_001	24.4685760874	45.0	126.0	18095162.0	16.6666666667
P8352_133_S35_L003_R2_001	22.6710740447	45.0	126.0	18095162.0	8.33333333333
P8352_133_S35_L004_R1_001	25.213681542	45.0	126.0	18466289.0	16.6666666667
P8352_133_S35_L004_R2_001	24.9574334104	45.0	126.0	18466289.0	16.6666666667
P8352_134_S36_L003_R1_001	19.3075862045	45.0	126.0	17775987.0	16.6666666667
P8352_134_S36_L003_R2_001	18.0119555572	45.0	126.0	17775987.0	8.33333333333
P8352_134_S36_L004_R1_001	19.8238828637	45.0	126.0	18039366.0	16.6666666667
P8352_134_S36_L004_R2_001	19.6270488393	45.0	126.0	18039366.0	16.6666666667
P8352_135_S37_L003_R1_001	16.4732274924	45.0	126.0	14084626.0	8.33333333333
P8352_135_S37_L003_R2_001	15.5324991635	45.0	126.0	14084626.0	8.33333333333
P8352_135_S37_L004_R1_001	17.0382107584	44.0	126.0	14438849.0	16.6666666667
P8352_135_S37_L004_R2_001	16.8924688617	45.0	126.0	14438849.0	16.6666666667
P8352_136_S19_L002_R1_001	16.7822242796	44.0	126.0	15299106.0	33.3333333333
P8352_136_S19_L002_R2_001	14.6335023474	44.0	126.0	15299106.0	8.33333333333
P8352_136_S19_L003_R1_001	18.9651799378	44.0	126.0	16889725.0	25.0
P8352_136_S19_L003_R2_001	18.753606565	44.0	126.0	16889725.0	16.6666666667
P8352_137_S20_L002_R1_001	16.2152005664	40.0	126.0	13423422.0	25.0
P8352_137_S20_L002_R2_001	16.16965529	40.0	126.0	13423422.0	16.6666666667
P8352_137_S20_L003_R1_001	17.2811304122	39.0	126.0	14085773.0	16.6666666667
P8352_137_S20_L003_R2_001	17.3520533198	39.0	126.0	14085773.0	16.6666666667
P8352_138_S21_L002_R1_001	22.4143913287	45.0	126.0	17535650.0	16.6666666667
P8352_138_S21_L002_R2_001	21.591570039	45.0	126.0	17535650.0	8.33333333333
P8352_138_S21_L003_R1_001	22.9418062407	45.0	126.0	18800601.0	8.33333333333
P8352_138_S21_L003_R2_001	22.2479468824	45.0	126.0	18800601.0	8.33333333333
P8352_139_S48_L004_R1_001	22.3980008452	45.0	126.0	16683459.0	8.33333333333
P8352_139_S48_L004_R2_001	21.6375814146	45.0	126.0	16683459.0	8.33333333333
P8352_139_S48_L005_R1_001	21.9927078101	45.0	126.0	15953917.0	16.6666666667
P8352_139_S48_L005_R2_001	21.8736510443	45.0	126.0	15953917.0	8.33333333333
P8352_140_S49_L004_R1_001	26.3954836853	45.0	126.0	16382621.0	16.6666666667
P8352_140_S49_L004_R2_001	25.409372713	45.0	126.0	16382621.0	16.6666666667
P8352_140_S49_L005_R1_001	27.1837058366	45.0	126.0	16246336.0	16.6666666667
P8352_140_S49_L005_R2_001	27.2536982079	45.0	126.0	16246336.0	16.6666666667
P8352_141_S50_L004_R1_001	27.1077528079	46.0	126.0	17782862.0	16.6666666667
P8352_141_S50_L004_R2_001	25.9680868013	46.0	126.0	17782862.0	8.33333333333
P8352_141_S50_L005_R1_001	26.8060304977	45.0	126.0	17189218.0	16.6666666667
P8352_141_S50_L005_R2_001	26.6929547562	46.0	126.0	17189218.0	16.6666666667
P8352_142_S22_L002_R1_001	12.1706066059	48.0	126.0	16297193.0	16.6666666667
P8352_142_S22_L002_R2_001	11.108211252	48.0	126.0	16297193.0	8.33333333333
P8352_142_S22_L003_R1_001	13.1323427378	47.0	126.0	17482657.0	16.6666666667
P8352_142_S22_L003_R2_001	11.8767849029	48.0	126.0	17482657.0	8.33333333333
P8352_143_S23_L002_R1_001	16.6707165683	48.0	126.0	20183510.0	16.6666666667
P8352_143_S23_L002_R2_001	15.9319781809	48.0	126.0	20183510.0	8.33333333333
P8352_143_S23_L003_R1_001	17.0783320255	48.0	126.0	21453332.0	8.33333333333
P8352_143_S23_L003_R2_001	16.6185777697	48.0	126.0	21453332.0	8.33333333333
P8352_144_S24_L002_R1_001	16.9858522436	43.0	126.0	17911339.0	16.6666666667
P8352_144_S24_L002_R2_001	16.4290660965	43.0	126.0	17911339.0	8.33333333333
P8352_144_S24_L003_R1_001	17.7138553889	42.0	126.0	18829689.0	8.33333333333
P8352_144_S24_L003_R2_001	17.1816926322	42.0	126.0	18829689.0	8.33333333333
P8352_145_S25_L002_R1_001	22.4174240104	43.0	126.0	17425659.0	16.6666666667
P8352_145_S25_L002_R2_001	21.7332811735	43.0	126.0	17425659.0	8.33333333333
P8352_145_S25_L003_R1_001	23.5132168429	43.0	126.0	18790531.0	8.33333333333
P8352_145_S25_L003_R2_001	22.7532129565	43.0	126.0	18790531.0	8.33333333333
P8352_146_S26_L002_R1_001	19.1213778287	44.0	126.0	22129505.0	16.6666666667
P8352_146_S26_L002_R2_001	18.8015901113	44.0	126.0	22129505.0	8.33333333333
P8352_146_S26_L003_R1_001	20.2279239595	44.0	126.0	23815050.0	8.33333333333
P8352_146_S26_L003_R2_001	19.7865657809	44.0	126.0	23815050.0	8.33333333333
P8352_147_S27_L002_R1_001	16.351773378	45.0	126.0	15877022.0	25.0
P8352_147_S27_L002_R2_001	15.0739260524	45.0	126.0	15877022.0	8.33333333333
P8352_147_S27_L003_R1_001	17.8103743134	45.0	126.0	17368703.0	16.6666666667
P8352_147_S27_L003_R2_001	17.658648461	45.0	126.0	17368703.0	16.6666666667
P8352_148_S38_L003_R1_001	19.7287696046	49.0	126.0	16261937.0	25.0
P8352_148_S38_L003_R2_001	12.5365446479	50.0	126.0	16261937.0	16.6666666667
P8352_148_S38_L004_R1_001	23.8573906521	49.0	126.0	17144515.0	25.0
P8352_148_S38_L004_R2_001	22.6475368826	49.0	126.0	17144515.0	25.0
P8352_149_S28_L002_R1_001	22.5292170619	47.0	126.0	17007834.0	16.6666666667
P8352_149_S28_L002_R2_001	21.545223948	47.0	126.0	17007834.0	8.33333333333
P8352_149_S28_L003_R1_001	23.2778909736	47.0	126.0	18308154.0	8.33333333333
P8352_149_S28_L003_R2_001	22.6109599035	47.0	126.0	18308154.0	8.33333333333
P8352_150_S39_L003_R1_001	21.0316264821	44.0	126.0	22182466.0	16.6666666667
P8352_150_S39_L003_R2_001	18.4934452116	44.0	126.0	22182466.0	8.33333333333
P8352_150_S39_L004_R1_001	22.2977533042	44.0	126.0	22999194.0	16.6666666667
P8352_150_S39_L004_R2_001	21.6765713782	44.0	126.0	22999194.0	16.6666666667
