Module	Section	Sample Name	Source
FastQC	all_sections	P8352_105_S30_L003_R1_001	/proj/data17/Skeletonema_marinoi_adaptation_to_warming_project/00_data/A.Godhe_17_01-P8352/P8352_105/02-FASTQ/171012_D00483_0240_BCBDHGANXX/P8352_105_S30_L003_R1_001_fastqc.zip
FastQC	all_sections	P8352_116_S10_L001_R2_001	/proj/data17/Skeletonema_marinoi_adaptation_to_warming_project/00_data/A.Godhe_17_01-P8352/P8352_116/02-FASTQ/171018_D00415_0281_BCBLUJANXX/P8352_116_S10_L001_R2_001_fastqc.zip
FastQC	all_sections	P8352_139_S48_L004_R1_001	/proj/data17/Skeletonema_marinoi_adaptation_to_warming_project/00_data/A.Godhe_17_01-P8352/P8352_139/02-FASTQ/171012_D00483_0240_BCBDHGANXX/P8352_139_S48_L004_R1_001_fastqc.zip
FastQC	all_sections	P8352_126_S46_L005_R1_001	/proj/data17/Skeletonema_marinoi_adaptation_to_warming_project/00_data/A.Godhe_17_01-P8352/P8352_126/02-FASTQ/171018_D00415_0281_BCBLUJANXX/P8352_126_S46_L005_R1_001_fastqc.zip
FastQC	all_sections	P8352_105_S30_L004_R2_001	/proj/data17/Skeletonema_marinoi_adaptation_to_warming_project/00_data/A.Godhe_17_01-P8352/P8352_105/02-FASTQ/171018_D00415_0281_BCBLUJANXX/P8352_105_S30_L004_R2_001_fastqc.zip
FastQC	all_sections	P8352_105_S30_L004_R1_001	/proj/data17/Skeletonema_marinoi_adaptation_to_warming_project/00_data/A.Godhe_17_01-P8352/P8352_105/02-FASTQ/171018_D00415_0281_BCBLUJANXX/P8352_105_S30_L004_R1_001_fastqc.zip
FastQC	all_sections	P8352_135_S37_L003_R2_001	/proj/data17/Skeletonema_marinoi_adaptation_to_warming_project/00_data/A.Godhe_17_01-P8352/P8352_135/02-FASTQ/171012_D00483_0240_BCBDHGANXX/P8352_135_S37_L003_R2_001_fastqc.zip
FastQC	all_sections	P8352_116_S10_L002_R1_001	/proj/data17/Skeletonema_marinoi_adaptation_to_warming_project/00_data/A.Godhe_17_01-P8352/P8352_116/02-FASTQ/171018_D00415_0281_BCBLUJANXX/P8352_116_S10_L002_R1_001_fastqc.zip
FastQC	all_sections	P8352_149_S28_L002_R1_001	/proj/data17/Skeletonema_marinoi_adaptation_to_warming_project/00_data/A.Godhe_17_01-P8352/P8352_149/02-FASTQ/171012_D00483_0240_BCBDHGANXX/P8352_149_S28_L002_R1_001_fastqc.zip
FastQC	all_sections	P8352_117_S31_L004_R1_001	/proj/data17/Skeletonema_marinoi_adaptation_to_warming_project/00_data/A.Godhe_17_01-P8352/P8352_117/02-FASTQ/171018_D00415_0281_BCBLUJANXX/P8352_117_S31_L004_R1_001_fastqc.zip
FastQC	all_sections	P8352_143_S23_L003_R2_001	/proj/data17/Skeletonema_marinoi_adaptation_to_warming_project/00_data/A.Godhe_17_01-P8352/P8352_143/02-FASTQ/171018_D00415_0281_BCBLUJANXX/P8352_143_S23_L003_R2_001_fastqc.zip
FastQC	all_sections	P8352_125_S15_L002_R1_001	/proj/data17/Skeletonema_marinoi_adaptation_to_warming_project/00_data/A.Godhe_17_01-P8352/P8352_125/02-FASTQ/171018_D00415_0281_BCBLUJANXX/P8352_125_S15_L002_R1_001_fastqc.zip
FastQC	all_sections	P8352_113_S8_L001_R1_001	/proj/data17/Skeletonema_marinoi_adaptation_to_warming_project/00_data/A.Godhe_17_01-P8352/P8352_113/02-FASTQ/171018_D00415_0281_BCBLUJANXX/P8352_113_S8_L001_R1_001_fastqc.zip
FastQC	all_sections	P8352_127_S16_L001_R1_001	/proj/data17/Skeletonema_marinoi_adaptation_to_warming_project/00_data/A.Godhe_17_01-P8352/P8352_127/02-FASTQ/171018_D00415_0281_BCBLUJANXX/P8352_127_S16_L001_R1_001_fastqc.zip
FastQC	all_sections	P8352_138_S21_L002_R2_001	/proj/data17/Skeletonema_marinoi_adaptation_to_warming_project/00_data/A.Godhe_17_01-P8352/P8352_138/02-FASTQ/171012_D00483_0240_BCBDHGANXX/P8352_138_S21_L002_R2_001_fastqc.zip
FastQC	all_sections	P8352_127_S16_L001_R2_001	/proj/data17/Skeletonema_marinoi_adaptation_to_warming_project/00_data/A.Godhe_17_01-P8352/P8352_127/02-FASTQ/171018_D00415_0281_BCBLUJANXX/P8352_127_S16_L001_R2_001_fastqc.zip
FastQC	all_sections	P8352_115_S43_L005_R1_001	/proj/data17/Skeletonema_marinoi_adaptation_to_warming_project/00_data/A.Godhe_17_01-P8352/P8352_115/02-FASTQ/171018_D00415_0281_BCBLUJANXX/P8352_115_S43_L005_R1_001_fastqc.zip
FastQC	all_sections	P8352_139_S48_L004_R2_001	/proj/data17/Skeletonema_marinoi_adaptation_to_warming_project/00_data/A.Godhe_17_01-P8352/P8352_139/02-FASTQ/171012_D00483_0240_BCBDHGANXX/P8352_139_S48_L004_R2_001_fastqc.zip
FastQC	all_sections	P8352_112_S7_L002_R2_001	/proj/data17/Skeletonema_marinoi_adaptation_to_warming_project/00_data/A.Godhe_17_01-P8352/P8352_112/02-FASTQ/171018_D00415_0281_BCBLUJANXX/P8352_112_S7_L002_R2_001_fastqc.zip
FastQC	all_sections	P8352_108_S41_L005_R2_001	/proj/data17/Skeletonema_marinoi_adaptation_to_warming_project/00_data/A.Godhe_17_01-P8352/P8352_108/02-FASTQ/171018_D00415_0281_BCBLUJANXX/P8352_108_S41_L005_R2_001_fastqc.zip
FastQC	all_sections	P8352_121_S13_L002_R2_001	/proj/data17/Skeletonema_marinoi_adaptation_to_warming_project/00_data/A.Godhe_17_01-P8352/P8352_121/02-FASTQ/171018_D00415_0281_BCBLUJANXX/P8352_121_S13_L002_R2_001_fastqc.zip
FastQC	all_sections	P8352_131_S47_L004_R1_001	/proj/data17/Skeletonema_marinoi_adaptation_to_warming_project/00_data/A.Godhe_17_01-P8352/P8352_131/02-FASTQ/171012_D00483_0240_BCBDHGANXX/P8352_131_S47_L004_R1_001_fastqc.zip
FastQC	all_sections	P8352_112_S7_L001_R2_001	/proj/data17/Skeletonema_marinoi_adaptation_to_warming_project/00_data/A.Godhe_17_01-P8352/P8352_112/02-FASTQ/171018_D00415_0281_BCBLUJANXX/P8352_112_S7_L001_R2_001_fastqc.zip
FastQC	all_sections	P8352_110_S5_L002_R2_001	/proj/data17/Skeletonema_marinoi_adaptation_to_warming_project/00_data/A.Godhe_17_01-P8352/P8352_110/02-FASTQ/171018_D00415_0281_BCBLUJANXX/P8352_110_S5_L002_R2_001_fastqc.zip
FastQC	all_sections	P8352_118_S11_L001_R1_001	/proj/data17/Skeletonema_marinoi_adaptation_to_warming_project/00_data/A.Godhe_17_01-P8352/P8352_118/02-FASTQ/171018_D00415_0281_BCBLUJANXX/P8352_118_S11_L001_R1_001_fastqc.zip
FastQC	all_sections	P8352_128_S17_L001_R1_001	/proj/data17/Skeletonema_marinoi_adaptation_to_warming_project/00_data/A.Godhe_17_01-P8352/P8352_128/02-FASTQ/171018_D00415_0281_BCBLUJANXX/P8352_128_S17_L001_R1_001_fastqc.zip
FastQC	all_sections	P8352_143_S23_L002_R2_001	/proj/data17/Skeletonema_marinoi_adaptation_to_warming_project/00_data/A.Godhe_17_01-P8352/P8352_143/02-FASTQ/171012_D00483_0240_BCBDHGANXX/P8352_143_S23_L002_R2_001_fastqc.zip
FastQC	all_sections	P8352_109_S42_L004_R1_001	/proj/data17/Skeletonema_marinoi_adaptation_to_warming_project/00_data/A.Godhe_17_01-P8352/P8352_109/02-FASTQ/171012_D00483_0240_BCBDHGANXX/P8352_109_S42_L004_R1_001_fastqc.zip
FastQC	all_sections	P8352_145_S25_L002_R1_001	/proj/data17/Skeletonema_marinoi_adaptation_to_warming_project/00_data/A.Godhe_17_01-P8352/P8352_145/02-FASTQ/171012_D00483_0240_BCBDHGANXX/P8352_145_S25_L002_R1_001_fastqc.zip
FastQC	all_sections	P8352_150_S39_L003_R2_001	/proj/data17/Skeletonema_marinoi_adaptation_to_warming_project/00_data/A.Godhe_17_01-P8352/P8352_150/02-FASTQ/171012_D00483_0240_BCBDHGANXX/P8352_150_S39_L003_R2_001_fastqc.zip
FastQC	all_sections	P8352_120_S12_L001_R1_001	/proj/data17/Skeletonema_marinoi_adaptation_to_warming_project/00_data/A.Godhe_17_01-P8352/P8352_120/02-FASTQ/171018_D00415_0281_BCBLUJANXX/P8352_120_S12_L001_R1_001_fastqc.zip
FastQC	all_sections	P8352_102_S1_L001_R2_001	/proj/data17/Skeletonema_marinoi_adaptation_to_warming_project/00_data/A.Godhe_17_01-P8352/P8352_102/02-FASTQ/171018_D00415_0281_BCBLUJANXX/P8352_102_S1_L001_R2_001_fastqc.zip
FastQC	all_sections	P8352_106_S3_L002_R2_001	/proj/data17/Skeletonema_marinoi_adaptation_to_warming_project/00_data/A.Godhe_17_01-P8352/P8352_106/02-FASTQ/171018_D00415_0281_BCBLUJANXX/P8352_106_S3_L002_R2_001_fastqc.zip
FastQC	all_sections	P8352_117_S31_L003_R1_001	/proj/data17/Skeletonema_marinoi_adaptation_to_warming_project/00_data/A.Godhe_17_01-P8352/P8352_117/02-FASTQ/171012_D00483_0240_BCBDHGANXX/P8352_117_S31_L003_R1_001_fastqc.zip
FastQC	all_sections	P8352_104_S2_L002_R1_001	/proj/data17/Skeletonema_marinoi_adaptation_to_warming_project/00_data/A.Godhe_17_01-P8352/P8352_104/02-FASTQ/171018_D00415_0281_BCBLUJANXX/P8352_104_S2_L002_R1_001_fastqc.zip
FastQC	all_sections	P8352_119_S44_L005_R2_001	/proj/data17/Skeletonema_marinoi_adaptation_to_warming_project/00_data/A.Godhe_17_01-P8352/P8352_119/02-FASTQ/171018_D00415_0281_BCBLUJANXX/P8352_119_S44_L005_R2_001_fastqc.zip
FastQC	all_sections	P8352_106_S3_L001_R1_001	/proj/data17/Skeletonema_marinoi_adaptation_to_warming_project/00_data/A.Godhe_17_01-P8352/P8352_106/02-FASTQ/171018_D00415_0281_BCBLUJANXX/P8352_106_S3_L001_R1_001_fastqc.zip
FastQC	all_sections	P8352_130_S34_L003_R1_001	/proj/data17/Skeletonema_marinoi_adaptation_to_warming_project/00_data/A.Godhe_17_01-P8352/P8352_130/02-FASTQ/171012_D00483_0240_BCBDHGANXX/P8352_130_S34_L003_R1_001_fastqc.zip
FastQC	all_sections	P8352_141_S50_L004_R1_001	/proj/data17/Skeletonema_marinoi_adaptation_to_warming_project/00_data/A.Godhe_17_01-P8352/P8352_141/02-FASTQ/171012_D00483_0240_BCBDHGANXX/P8352_141_S50_L004_R1_001_fastqc.zip
FastQC	all_sections	P8352_121_S13_L002_R1_001	/proj/data17/Skeletonema_marinoi_adaptation_to_warming_project/00_data/A.Godhe_17_01-P8352/P8352_121/02-FASTQ/171018_D00415_0281_BCBLUJANXX/P8352_121_S13_L002_R1_001_fastqc.zip
FastQC	all_sections	P8352_119_S44_L004_R1_001	/proj/data17/Skeletonema_marinoi_adaptation_to_warming_project/00_data/A.Godhe_17_01-P8352/P8352_119/02-FASTQ/171012_D00483_0240_BCBDHGANXX/P8352_119_S44_L004_R1_001_fastqc.zip
FastQC	all_sections	P8352_145_S25_L002_R2_001	/proj/data17/Skeletonema_marinoi_adaptation_to_warming_project/00_data/A.Godhe_17_01-P8352/P8352_145/02-FASTQ/171012_D00483_0240_BCBDHGANXX/P8352_145_S25_L002_R2_001_fastqc.zip
FastQC	all_sections	P8352_118_S11_L002_R2_001	/proj/data17/Skeletonema_marinoi_adaptation_to_warming_project/00_data/A.Godhe_17_01-P8352/P8352_118/02-FASTQ/171018_D00415_0281_BCBLUJANXX/P8352_118_S11_L002_R2_001_fastqc.zip
FastQC	all_sections	P8352_128_S17_L002_R2_001	/proj/data17/Skeletonema_marinoi_adaptation_to_warming_project/00_data/A.Godhe_17_01-P8352/P8352_128/02-FASTQ/171018_D00415_0281_BCBLUJANXX/P8352_128_S17_L002_R2_001_fastqc.zip
FastQC	all_sections	P8352_114_S9_L002_R2_001	/proj/data17/Skeletonema_marinoi_adaptation_to_warming_project/00_data/A.Godhe_17_01-P8352/P8352_114/02-FASTQ/171018_D00415_0281_BCBLUJANXX/P8352_114_S9_L002_R2_001_fastqc.zip
FastQC	all_sections	P8352_126_S46_L004_R1_001	/proj/data17/Skeletonema_marinoi_adaptation_to_warming_project/00_data/A.Godhe_17_01-P8352/P8352_126/02-FASTQ/171012_D00483_0240_BCBDHGANXX/P8352_126_S46_L004_R1_001_fastqc.zip
FastQC	all_sections	P8352_120_S12_L002_R1_001	/proj/data17/Skeletonema_marinoi_adaptation_to_warming_project/00_data/A.Godhe_17_01-P8352/P8352_120/02-FASTQ/171018_D00415_0281_BCBLUJANXX/P8352_120_S12_L002_R1_001_fastqc.zip
FastQC	all_sections	P8352_103_S40_L004_R2_001	/proj/data17/Skeletonema_marinoi_adaptation_to_warming_project/00_data/A.Godhe_17_01-P8352/P8352_103/02-FASTQ/171012_D00483_0240_BCBDHGANXX/P8352_103_S40_L004_R2_001_fastqc.zip
FastQC	all_sections	P8352_120_S12_L002_R2_001	/proj/data17/Skeletonema_marinoi_adaptation_to_warming_project/00_data/A.Godhe_17_01-P8352/P8352_120/02-FASTQ/171018_D00415_0281_BCBLUJANXX/P8352_120_S12_L002_R2_001_fastqc.zip
FastQC	all_sections	P8352_137_S20_L002_R1_001	/proj/data17/Skeletonema_marinoi_adaptation_to_warming_project/00_data/A.Godhe_17_01-P8352/P8352_137/02-FASTQ/171012_D00483_0240_BCBDHGANXX/P8352_137_S20_L002_R1_001_fastqc.zip
FastQC	all_sections	P8352_111_S6_L002_R2_001	/proj/data17/Skeletonema_marinoi_adaptation_to_warming_project/00_data/A.Godhe_17_01-P8352/P8352_111/02-FASTQ/171018_D00415_0281_BCBLUJANXX/P8352_111_S6_L002_R2_001_fastqc.zip
FastQC	all_sections	P8352_143_S23_L003_R1_001	/proj/data17/Skeletonema_marinoi_adaptation_to_warming_project/00_data/A.Godhe_17_01-P8352/P8352_143/02-FASTQ/171018_D00415_0281_BCBLUJANXX/P8352_143_S23_L003_R1_001_fastqc.zip
FastQC	all_sections	P8352_124_S32_L004_R2_001	/proj/data17/Skeletonema_marinoi_adaptation_to_warming_project/00_data/A.Godhe_17_01-P8352/P8352_124/02-FASTQ/171018_D00415_0281_BCBLUJANXX/P8352_124_S32_L004_R2_001_fastqc.zip
FastQC	all_sections	P8352_148_S38_L003_R1_001	/proj/data17/Skeletonema_marinoi_adaptation_to_warming_project/00_data/A.Godhe_17_01-P8352/P8352_148/02-FASTQ/171012_D00483_0240_BCBDHGANXX/P8352_148_S38_L003_R1_001_fastqc.zip
FastQC	all_sections	P8352_150_S39_L003_R1_001	/proj/data17/Skeletonema_marinoi_adaptation_to_warming_project/00_data/A.Godhe_17_01-P8352/P8352_150/02-FASTQ/171012_D00483_0240_BCBDHGANXX/P8352_150_S39_L003_R1_001_fastqc.zip
FastQC	all_sections	P8352_124_S32_L003_R2_001	/proj/data17/Skeletonema_marinoi_adaptation_to_warming_project/00_data/A.Godhe_17_01-P8352/P8352_124/02-FASTQ/171012_D00483_0240_BCBDHGANXX/P8352_124_S32_L003_R2_001_fastqc.zip
FastQC	all_sections	P8352_141_S50_L005_R1_001	/proj/data17/Skeletonema_marinoi_adaptation_to_warming_project/00_data/A.Godhe_17_01-P8352/P8352_141/02-FASTQ/171018_D00415_0281_BCBLUJANXX/P8352_141_S50_L005_R1_001_fastqc.zip
FastQC	all_sections	P8352_129_S33_L003_R2_001	/proj/data17/Skeletonema_marinoi_adaptation_to_warming_project/00_data/A.Godhe_17_01-P8352/P8352_129/02-FASTQ/171012_D00483_0240_BCBDHGANXX/P8352_129_S33_L003_R2_001_fastqc.zip
FastQC	all_sections	P8352_132_S18_L003_R1_001	/proj/data17/Skeletonema_marinoi_adaptation_to_warming_project/00_data/A.Godhe_17_01-P8352/P8352_132/02-FASTQ/171018_D00415_0281_BCBLUJANXX/P8352_132_S18_L003_R1_001_fastqc.zip
FastQC	all_sections	P8352_110_S5_L001_R1_001	/proj/data17/Skeletonema_marinoi_adaptation_to_warming_project/00_data/A.Godhe_17_01-P8352/P8352_110/02-FASTQ/171018_D00415_0281_BCBLUJANXX/P8352_110_S5_L001_R1_001_fastqc.zip
FastQC	all_sections	P8352_133_S35_L003_R1_001	/proj/data17/Skeletonema_marinoi_adaptation_to_warming_project/00_data/A.Godhe_17_01-P8352/P8352_133/02-FASTQ/171012_D00483_0240_BCBDHGANXX/P8352_133_S35_L003_R1_001_fastqc.zip
FastQC	all_sections	P8352_147_S27_L002_R1_001	/proj/data17/Skeletonema_marinoi_adaptation_to_warming_project/00_data/A.Godhe_17_01-P8352/P8352_147/02-FASTQ/171012_D00483_0240_BCBDHGANXX/P8352_147_S27_L002_R1_001_fastqc.zip
FastQC	all_sections	P8352_142_S22_L002_R1_001	/proj/data17/Skeletonema_marinoi_adaptation_to_warming_project/00_data/A.Godhe_17_01-P8352/P8352_142/02-FASTQ/171012_D00483_0240_BCBDHGANXX/P8352_142_S22_L002_R1_001_fastqc.zip
FastQC	all_sections	P8352_107_S4_L002_R1_001	/proj/data17/Skeletonema_marinoi_adaptation_to_warming_project/00_data/A.Godhe_17_01-P8352/P8352_107/02-FASTQ/171018_D00415_0281_BCBLUJANXX/P8352_107_S4_L002_R1_001_fastqc.zip
FastQC	all_sections	P8352_101_S29_L003_R1_001	/proj/data17/Skeletonema_marinoi_adaptation_to_warming_project/00_data/A.Godhe_17_01-P8352/P8352_101/02-FASTQ/171012_D00483_0240_BCBDHGANXX/P8352_101_S29_L003_R1_001_fastqc.zip
FastQC	all_sections	P8352_130_S34_L004_R1_001	/proj/data17/Skeletonema_marinoi_adaptation_to_warming_project/00_data/A.Godhe_17_01-P8352/P8352_130/02-FASTQ/171018_D00415_0281_BCBLUJANXX/P8352_130_S34_L004_R1_001_fastqc.zip
FastQC	all_sections	P8352_138_S21_L003_R1_001	/proj/data17/Skeletonema_marinoi_adaptation_to_warming_project/00_data/A.Godhe_17_01-P8352/P8352_138/02-FASTQ/171018_D00415_0281_BCBLUJANXX/P8352_138_S21_L003_R1_001_fastqc.zip
FastQC	all_sections	P8352_138_S21_L003_R2_001	/proj/data17/Skeletonema_marinoi_adaptation_to_warming_project/00_data/A.Godhe_17_01-P8352/P8352_138/02-FASTQ/171018_D00415_0281_BCBLUJANXX/P8352_138_S21_L003_R2_001_fastqc.zip
FastQC	all_sections	P8352_148_S38_L004_R1_001	/proj/data17/Skeletonema_marinoi_adaptation_to_warming_project/00_data/A.Godhe_17_01-P8352/P8352_148/02-FASTQ/171018_D00415_0281_BCBLUJANXX/P8352_148_S38_L004_R1_001_fastqc.zip
FastQC	all_sections	P8352_132_S18_L002_R1_001	/proj/data17/Skeletonema_marinoi_adaptation_to_warming_project/00_data/A.Godhe_17_01-P8352/P8352_132/02-FASTQ/171012_D00483_0240_BCBDHGANXX/P8352_132_S18_L002_R1_001_fastqc.zip
FastQC	all_sections	P8352_122_S45_L004_R1_001	/proj/data17/Skeletonema_marinoi_adaptation_to_warming_project/00_data/A.Godhe_17_01-P8352/P8352_122/02-FASTQ/171012_D00483_0240_BCBDHGANXX/P8352_122_S45_L004_R1_001_fastqc.zip
FastQC	all_sections	P8352_109_S42_L004_R2_001	/proj/data17/Skeletonema_marinoi_adaptation_to_warming_project/00_data/A.Godhe_17_01-P8352/P8352_109/02-FASTQ/171012_D00483_0240_BCBDHGANXX/P8352_109_S42_L004_R2_001_fastqc.zip
FastQC	all_sections	P8352_111_S6_L002_R1_001	/proj/data17/Skeletonema_marinoi_adaptation_to_warming_project/00_data/A.Godhe_17_01-P8352/P8352_111/02-FASTQ/171018_D00415_0281_BCBLUJANXX/P8352_111_S6_L002_R1_001_fastqc.zip
FastQC	all_sections	P8352_123_S14_L002_R2_001	/proj/data17/Skeletonema_marinoi_adaptation_to_warming_project/00_data/A.Godhe_17_01-P8352/P8352_123/02-FASTQ/171018_D00415_0281_BCBLUJANXX/P8352_123_S14_L002_R2_001_fastqc.zip
FastQC	all_sections	P8352_109_S42_L005_R1_001	/proj/data17/Skeletonema_marinoi_adaptation_to_warming_project/00_data/A.Godhe_17_01-P8352/P8352_109/02-FASTQ/171018_D00415_0281_BCBLUJANXX/P8352_109_S42_L005_R1_001_fastqc.zip
FastQC	all_sections	P8352_148_S38_L003_R2_001	/proj/data17/Skeletonema_marinoi_adaptation_to_warming_project/00_data/A.Godhe_17_01-P8352/P8352_148/02-FASTQ/171012_D00483_0240_BCBDHGANXX/P8352_148_S38_L003_R2_001_fastqc.zip
FastQC	all_sections	P8352_140_S49_L005_R2_001	/proj/data17/Skeletonema_marinoi_adaptation_to_warming_project/00_data/A.Godhe_17_01-P8352/P8352_140/02-FASTQ/171018_D00415_0281_BCBLUJANXX/P8352_140_S49_L005_R2_001_fastqc.zip
FastQC	all_sections	P8352_146_S26_L003_R2_001	/proj/data17/Skeletonema_marinoi_adaptation_to_warming_project/00_data/A.Godhe_17_01-P8352/P8352_146/02-FASTQ/171018_D00415_0281_BCBLUJANXX/P8352_146_S26_L003_R2_001_fastqc.zip
FastQC	all_sections	P8352_113_S8_L002_R1_001	/proj/data17/Skeletonema_marinoi_adaptation_to_warming_project/00_data/A.Godhe_17_01-P8352/P8352_113/02-FASTQ/171018_D00415_0281_BCBLUJANXX/P8352_113_S8_L002_R1_001_fastqc.zip
FastQC	all_sections	P8352_137_S20_L003_R1_001	/proj/data17/Skeletonema_marinoi_adaptation_to_warming_project/00_data/A.Godhe_17_01-P8352/P8352_137/02-FASTQ/171018_D00415_0281_BCBLUJANXX/P8352_137_S20_L003_R1_001_fastqc.zip
FastQC	all_sections	P8352_146_S26_L002_R2_001	/proj/data17/Skeletonema_marinoi_adaptation_to_warming_project/00_data/A.Godhe_17_01-P8352/P8352_146/02-FASTQ/171012_D00483_0240_BCBDHGANXX/P8352_146_S26_L002_R2_001_fastqc.zip
FastQC	all_sections	P8352_114_S9_L001_R1_001	/proj/data17/Skeletonema_marinoi_adaptation_to_warming_project/00_data/A.Godhe_17_01-P8352/P8352_114/02-FASTQ/171018_D00415_0281_BCBLUJANXX/P8352_114_S9_L001_R1_001_fastqc.zip
FastQC	all_sections	P8352_121_S13_L001_R1_001	/proj/data17/Skeletonema_marinoi_adaptation_to_warming_project/00_data/A.Godhe_17_01-P8352/P8352_121/02-FASTQ/171018_D00415_0281_BCBLUJANXX/P8352_121_S13_L001_R1_001_fastqc.zip
FastQC	all_sections	P8352_130_S34_L004_R2_001	/proj/data17/Skeletonema_marinoi_adaptation_to_warming_project/00_data/A.Godhe_17_01-P8352/P8352_130/02-FASTQ/171018_D00415_0281_BCBLUJANXX/P8352_130_S34_L004_R2_001_fastqc.zip
FastQC	all_sections	P8352_135_S37_L004_R2_001	/proj/data17/Skeletonema_marinoi_adaptation_to_warming_project/00_data/A.Godhe_17_01-P8352/P8352_135/02-FASTQ/171018_D00415_0281_BCBLUJANXX/P8352_135_S37_L004_R2_001_fastqc.zip
FastQC	all_sections	P8352_108_S41_L005_R1_001	/proj/data17/Skeletonema_marinoi_adaptation_to_warming_project/00_data/A.Godhe_17_01-P8352/P8352_108/02-FASTQ/171018_D00415_0281_BCBLUJANXX/P8352_108_S41_L005_R1_001_fastqc.zip
FastQC	all_sections	P8352_112_S7_L002_R1_001	/proj/data17/Skeletonema_marinoi_adaptation_to_warming_project/00_data/A.Godhe_17_01-P8352/P8352_112/02-FASTQ/171018_D00415_0281_BCBLUJANXX/P8352_112_S7_L002_R1_001_fastqc.zip
FastQC	all_sections	P8352_101_S29_L004_R2_001	/proj/data17/Skeletonema_marinoi_adaptation_to_warming_project/00_data/A.Godhe_17_01-P8352/P8352_101/02-FASTQ/171018_D00415_0281_BCBLUJANXX/P8352_101_S29_L004_R2_001_fastqc.zip
FastQC	all_sections	P8352_143_S23_L002_R1_001	/proj/data17/Skeletonema_marinoi_adaptation_to_warming_project/00_data/A.Godhe_17_01-P8352/P8352_143/02-FASTQ/171012_D00483_0240_BCBDHGANXX/P8352_143_S23_L002_R1_001_fastqc.zip
FastQC	all_sections	P8352_149_S28_L003_R2_001	/proj/data17/Skeletonema_marinoi_adaptation_to_warming_project/00_data/A.Godhe_17_01-P8352/P8352_149/02-FASTQ/171018_D00415_0281_BCBLUJANXX/P8352_149_S28_L003_R2_001_fastqc.zip
FastQC	all_sections	P8352_116_S10_L002_R2_001	/proj/data17/Skeletonema_marinoi_adaptation_to_warming_project/00_data/A.Godhe_17_01-P8352/P8352_116/02-FASTQ/171018_D00415_0281_BCBLUJANXX/P8352_116_S10_L002_R2_001_fastqc.zip
FastQC	all_sections	P8352_131_S47_L004_R2_001	/proj/data17/Skeletonema_marinoi_adaptation_to_warming_project/00_data/A.Godhe_17_01-P8352/P8352_131/02-FASTQ/171012_D00483_0240_BCBDHGANXX/P8352_131_S47_L004_R2_001_fastqc.zip
FastQC	all_sections	P8352_113_S8_L001_R2_001	/proj/data17/Skeletonema_marinoi_adaptation_to_warming_project/00_data/A.Godhe_17_01-P8352/P8352_113/02-FASTQ/171018_D00415_0281_BCBLUJANXX/P8352_113_S8_L001_R2_001_fastqc.zip
FastQC	all_sections	P8352_104_S2_L001_R2_001	/proj/data17/Skeletonema_marinoi_adaptation_to_warming_project/00_data/A.Godhe_17_01-P8352/P8352_104/02-FASTQ/171018_D00415_0281_BCBLUJANXX/P8352_104_S2_L001_R2_001_fastqc.zip
FastQC	all_sections	P8352_128_S17_L002_R1_001	/proj/data17/Skeletonema_marinoi_adaptation_to_warming_project/00_data/A.Godhe_17_01-P8352/P8352_128/02-FASTQ/171018_D00415_0281_BCBLUJANXX/P8352_128_S17_L002_R1_001_fastqc.zip
FastQC	all_sections	P8352_134_S36_L004_R2_001	/proj/data17/Skeletonema_marinoi_adaptation_to_warming_project/00_data/A.Godhe_17_01-P8352/P8352_134/02-FASTQ/171018_D00415_0281_BCBLUJANXX/P8352_134_S36_L004_R2_001_fastqc.zip
FastQC	all_sections	P8352_122_S45_L005_R2_001	/proj/data17/Skeletonema_marinoi_adaptation_to_warming_project/00_data/A.Godhe_17_01-P8352/P8352_122/02-FASTQ/171018_D00415_0281_BCBLUJANXX/P8352_122_S45_L005_R2_001_fastqc.zip
FastQC	all_sections	P8352_103_S40_L004_R1_001	/proj/data17/Skeletonema_marinoi_adaptation_to_warming_project/00_data/A.Godhe_17_01-P8352/P8352_103/02-FASTQ/171012_D00483_0240_BCBDHGANXX/P8352_103_S40_L004_R1_001_fastqc.zip
FastQC	all_sections	P8352_150_S39_L004_R2_001	/proj/data17/Skeletonema_marinoi_adaptation_to_warming_project/00_data/A.Godhe_17_01-P8352/P8352_150/02-FASTQ/171018_D00415_0281_BCBLUJANXX/P8352_150_S39_L004_R2_001_fastqc.zip
FastQC	all_sections	P8352_144_S24_L002_R2_001	/proj/data17/Skeletonema_marinoi_adaptation_to_warming_project/00_data/A.Godhe_17_01-P8352/P8352_144/02-FASTQ/171012_D00483_0240_BCBDHGANXX/P8352_144_S24_L002_R2_001_fastqc.zip
FastQC	all_sections	P8352_105_S30_L003_R2_001	/proj/data17/Skeletonema_marinoi_adaptation_to_warming_project/00_data/A.Godhe_17_01-P8352/P8352_105/02-FASTQ/171012_D00483_0240_BCBDHGANXX/P8352_105_S30_L003_R2_001_fastqc.zip
FastQC	all_sections	P8352_123_S14_L002_R1_001	/proj/data17/Skeletonema_marinoi_adaptation_to_warming_project/00_data/A.Godhe_17_01-P8352/P8352_123/02-FASTQ/171018_D00415_0281_BCBLUJANXX/P8352_123_S14_L002_R1_001_fastqc.zip
FastQC	all_sections	P8352_142_S22_L002_R2_001	/proj/data17/Skeletonema_marinoi_adaptation_to_warming_project/00_data/A.Godhe_17_01-P8352/P8352_142/02-FASTQ/171012_D00483_0240_BCBDHGANXX/P8352_142_S22_L002_R2_001_fastqc.zip
FastQC	all_sections	P8352_108_S41_L004_R2_001	/proj/data17/Skeletonema_marinoi_adaptation_to_warming_project/00_data/A.Godhe_17_01-P8352/P8352_108/02-FASTQ/171012_D00483_0240_BCBDHGANXX/P8352_108_S41_L004_R2_001_fastqc.zip
FastQC	all_sections	P8352_111_S6_L001_R1_001	/proj/data17/Skeletonema_marinoi_adaptation_to_warming_project/00_data/A.Godhe_17_01-P8352/P8352_111/02-FASTQ/171018_D00415_0281_BCBLUJANXX/P8352_111_S6_L001_R1_001_fastqc.zip
FastQC	all_sections	P8352_111_S6_L001_R2_001	/proj/data17/Skeletonema_marinoi_adaptation_to_warming_project/00_data/A.Godhe_17_01-P8352/P8352_111/02-FASTQ/171018_D00415_0281_BCBLUJANXX/P8352_111_S6_L001_R2_001_fastqc.zip
FastQC	all_sections	P8352_147_S27_L002_R2_001	/proj/data17/Skeletonema_marinoi_adaptation_to_warming_project/00_data/A.Godhe_17_01-P8352/P8352_147/02-FASTQ/171012_D00483_0240_BCBDHGANXX/P8352_147_S27_L002_R2_001_fastqc.zip
FastQC	all_sections	P8352_102_S1_L002_R1_001	/proj/data17/Skeletonema_marinoi_adaptation_to_warming_project/00_data/A.Godhe_17_01-P8352/P8352_102/02-FASTQ/171018_D00415_0281_BCBLUJANXX/P8352_102_S1_L002_R1_001_fastqc.zip
FastQC	all_sections	P8352_118_S11_L002_R1_001	/proj/data17/Skeletonema_marinoi_adaptation_to_warming_project/00_data/A.Godhe_17_01-P8352/P8352_118/02-FASTQ/171018_D00415_0281_BCBLUJANXX/P8352_118_S11_L002_R1_001_fastqc.zip
FastQC	all_sections	P8352_138_S21_L002_R1_001	/proj/data17/Skeletonema_marinoi_adaptation_to_warming_project/00_data/A.Godhe_17_01-P8352/P8352_138/02-FASTQ/171012_D00483_0240_BCBDHGANXX/P8352_138_S21_L002_R1_001_fastqc.zip
FastQC	all_sections	P8352_129_S33_L004_R2_001	/proj/data17/Skeletonema_marinoi_adaptation_to_warming_project/00_data/A.Godhe_17_01-P8352/P8352_129/02-FASTQ/171018_D00415_0281_BCBLUJANXX/P8352_129_S33_L004_R2_001_fastqc.zip
FastQC	all_sections	P8352_112_S7_L001_R1_001	/proj/data17/Skeletonema_marinoi_adaptation_to_warming_project/00_data/A.Godhe_17_01-P8352/P8352_112/02-FASTQ/171018_D00415_0281_BCBLUJANXX/P8352_112_S7_L001_R1_001_fastqc.zip
FastQC	all_sections	P8352_122_S45_L004_R2_001	/proj/data17/Skeletonema_marinoi_adaptation_to_warming_project/00_data/A.Godhe_17_01-P8352/P8352_122/02-FASTQ/171012_D00483_0240_BCBDHGANXX/P8352_122_S45_L004_R2_001_fastqc.zip
FastQC	all_sections	P8352_129_S33_L004_R1_001	/proj/data17/Skeletonema_marinoi_adaptation_to_warming_project/00_data/A.Godhe_17_01-P8352/P8352_129/02-FASTQ/171018_D00415_0281_BCBLUJANXX/P8352_129_S33_L004_R1_001_fastqc.zip
FastQC	all_sections	P8352_119_S44_L004_R2_001	/proj/data17/Skeletonema_marinoi_adaptation_to_warming_project/00_data/A.Godhe_17_01-P8352/P8352_119/02-FASTQ/171012_D00483_0240_BCBDHGANXX/P8352_119_S44_L004_R2_001_fastqc.zip
FastQC	all_sections	P8352_124_S32_L004_R1_001	/proj/data17/Skeletonema_marinoi_adaptation_to_warming_project/00_data/A.Godhe_17_01-P8352/P8352_124/02-FASTQ/171018_D00415_0281_BCBLUJANXX/P8352_124_S32_L004_R1_001_fastqc.zip
FastQC	all_sections	P8352_107_S4_L001_R2_001	/proj/data17/Skeletonema_marinoi_adaptation_to_warming_project/00_data/A.Godhe_17_01-P8352/P8352_107/02-FASTQ/171018_D00415_0281_BCBLUJANXX/P8352_107_S4_L001_R2_001_fastqc.zip
FastQC	all_sections	P8352_140_S49_L004_R2_001	/proj/data17/Skeletonema_marinoi_adaptation_to_warming_project/00_data/A.Godhe_17_01-P8352/P8352_140/02-FASTQ/171012_D00483_0240_BCBDHGANXX/P8352_140_S49_L004_R2_001_fastqc.zip
FastQC	all_sections	P8352_110_S5_L002_R1_001	/proj/data17/Skeletonema_marinoi_adaptation_to_warming_project/00_data/A.Godhe_17_01-P8352/P8352_110/02-FASTQ/171018_D00415_0281_BCBLUJANXX/P8352_110_S5_L002_R1_001_fastqc.zip
FastQC	all_sections	P8352_101_S29_L004_R1_001	/proj/data17/Skeletonema_marinoi_adaptation_to_warming_project/00_data/A.Godhe_17_01-P8352/P8352_101/02-FASTQ/171018_D00415_0281_BCBLUJANXX/P8352_101_S29_L004_R1_001_fastqc.zip
FastQC	all_sections	P8352_134_S36_L003_R1_001	/proj/data17/Skeletonema_marinoi_adaptation_to_warming_project/00_data/A.Godhe_17_01-P8352/P8352_134/02-FASTQ/171012_D00483_0240_BCBDHGANXX/P8352_134_S36_L003_R1_001_fastqc.zip
FastQC	all_sections	P8352_125_S15_L001_R2_001	/proj/data17/Skeletonema_marinoi_adaptation_to_warming_project/00_data/A.Godhe_17_01-P8352/P8352_125/02-FASTQ/171018_D00415_0281_BCBLUJANXX/P8352_125_S15_L001_R2_001_fastqc.zip
FastQC	all_sections	P8352_108_S41_L004_R1_001	/proj/data17/Skeletonema_marinoi_adaptation_to_warming_project/00_data/A.Godhe_17_01-P8352/P8352_108/02-FASTQ/171012_D00483_0240_BCBDHGANXX/P8352_108_S41_L004_R1_001_fastqc.zip
FastQC	all_sections	P8352_127_S16_L002_R1_001	/proj/data17/Skeletonema_marinoi_adaptation_to_warming_project/00_data/A.Godhe_17_01-P8352/P8352_127/02-FASTQ/171018_D00415_0281_BCBLUJANXX/P8352_127_S16_L002_R1_001_fastqc.zip
FastQC	all_sections	P8352_113_S8_L002_R2_001	/proj/data17/Skeletonema_marinoi_adaptation_to_warming_project/00_data/A.Godhe_17_01-P8352/P8352_113/02-FASTQ/171018_D00415_0281_BCBLUJANXX/P8352_113_S8_L002_R2_001_fastqc.zip
FastQC	all_sections	P8352_135_S37_L004_R1_001	/proj/data17/Skeletonema_marinoi_adaptation_to_warming_project/00_data/A.Godhe_17_01-P8352/P8352_135/02-FASTQ/171018_D00415_0281_BCBLUJANXX/P8352_135_S37_L004_R1_001_fastqc.zip
FastQC	all_sections	P8352_147_S27_L003_R1_001	/proj/data17/Skeletonema_marinoi_adaptation_to_warming_project/00_data/A.Godhe_17_01-P8352/P8352_147/02-FASTQ/171018_D00415_0281_BCBLUJANXX/P8352_147_S27_L003_R1_001_fastqc.zip
FastQC	all_sections	P8352_115_S43_L005_R2_001	/proj/data17/Skeletonema_marinoi_adaptation_to_warming_project/00_data/A.Godhe_17_01-P8352/P8352_115/02-FASTQ/171018_D00415_0281_BCBLUJANXX/P8352_115_S43_L005_R2_001_fastqc.zip
FastQC	all_sections	P8352_122_S45_L005_R1_001	/proj/data17/Skeletonema_marinoi_adaptation_to_warming_project/00_data/A.Godhe_17_01-P8352/P8352_122/02-FASTQ/171018_D00415_0281_BCBLUJANXX/P8352_122_S45_L005_R1_001_fastqc.zip
FastQC	all_sections	P8352_140_S49_L005_R1_001	/proj/data17/Skeletonema_marinoi_adaptation_to_warming_project/00_data/A.Godhe_17_01-P8352/P8352_140/02-FASTQ/171018_D00415_0281_BCBLUJANXX/P8352_140_S49_L005_R1_001_fastqc.zip
FastQC	all_sections	P8352_121_S13_L001_R2_001	/proj/data17/Skeletonema_marinoi_adaptation_to_warming_project/00_data/A.Godhe_17_01-P8352/P8352_121/02-FASTQ/171018_D00415_0281_BCBLUJANXX/P8352_121_S13_L001_R2_001_fastqc.zip
FastQC	all_sections	P8352_149_S28_L002_R2_001	/proj/data17/Skeletonema_marinoi_adaptation_to_warming_project/00_data/A.Godhe_17_01-P8352/P8352_149/02-FASTQ/171012_D00483_0240_BCBDHGANXX/P8352_149_S28_L002_R2_001_fastqc.zip
FastQC	all_sections	P8352_133_S35_L004_R2_001	/proj/data17/Skeletonema_marinoi_adaptation_to_warming_project/00_data/A.Godhe_17_01-P8352/P8352_133/02-FASTQ/171018_D00415_0281_BCBLUJANXX/P8352_133_S35_L004_R2_001_fastqc.zip
FastQC	all_sections	P8352_130_S34_L003_R2_001	/proj/data17/Skeletonema_marinoi_adaptation_to_warming_project/00_data/A.Godhe_17_01-P8352/P8352_130/02-FASTQ/171012_D00483_0240_BCBDHGANXX/P8352_130_S34_L003_R2_001_fastqc.zip
FastQC	all_sections	P8352_101_S29_L003_R2_001	/proj/data17/Skeletonema_marinoi_adaptation_to_warming_project/00_data/A.Godhe_17_01-P8352/P8352_101/02-FASTQ/171012_D00483_0240_BCBDHGANXX/P8352_101_S29_L003_R2_001_fastqc.zip
FastQC	all_sections	P8352_141_S50_L004_R2_001	/proj/data17/Skeletonema_marinoi_adaptation_to_warming_project/00_data/A.Godhe_17_01-P8352/P8352_141/02-FASTQ/171012_D00483_0240_BCBDHGANXX/P8352_141_S50_L004_R2_001_fastqc.zip
FastQC	all_sections	P8352_120_S12_L001_R2_001	/proj/data17/Skeletonema_marinoi_adaptation_to_warming_project/00_data/A.Godhe_17_01-P8352/P8352_120/02-FASTQ/171018_D00415_0281_BCBLUJANXX/P8352_120_S12_L001_R2_001_fastqc.zip
FastQC	all_sections	P8352_114_S9_L002_R1_001	/proj/data17/Skeletonema_marinoi_adaptation_to_warming_project/00_data/A.Godhe_17_01-P8352/P8352_114/02-FASTQ/171018_D00415_0281_BCBLUJANXX/P8352_114_S9_L002_R1_001_fastqc.zip
FastQC	all_sections	P8352_129_S33_L003_R1_001	/proj/data17/Skeletonema_marinoi_adaptation_to_warming_project/00_data/A.Godhe_17_01-P8352/P8352_129/02-FASTQ/171012_D00483_0240_BCBDHGANXX/P8352_129_S33_L003_R1_001_fastqc.zip
FastQC	all_sections	P8352_145_S25_L003_R1_001	/proj/data17/Skeletonema_marinoi_adaptation_to_warming_project/00_data/A.Godhe_17_01-P8352/P8352_145/02-FASTQ/171018_D00415_0281_BCBLUJANXX/P8352_145_S25_L003_R1_001_fastqc.zip
FastQC	all_sections	P8352_135_S37_L003_R1_001	/proj/data17/Skeletonema_marinoi_adaptation_to_warming_project/00_data/A.Godhe_17_01-P8352/P8352_135/02-FASTQ/171012_D00483_0240_BCBDHGANXX/P8352_135_S37_L003_R1_001_fastqc.zip
FastQC	all_sections	P8352_145_S25_L003_R2_001	/proj/data17/Skeletonema_marinoi_adaptation_to_warming_project/00_data/A.Godhe_17_01-P8352/P8352_145/02-FASTQ/171018_D00415_0281_BCBLUJANXX/P8352_145_S25_L003_R2_001_fastqc.zip
FastQC	all_sections	P8352_106_S3_L001_R2_001	/proj/data17/Skeletonema_marinoi_adaptation_to_warming_project/00_data/A.Godhe_17_01-P8352/P8352_106/02-FASTQ/171018_D00415_0281_BCBLUJANXX/P8352_106_S3_L001_R2_001_fastqc.zip
FastQC	all_sections	P8352_119_S44_L005_R1_001	/proj/data17/Skeletonema_marinoi_adaptation_to_warming_project/00_data/A.Godhe_17_01-P8352/P8352_119/02-FASTQ/171018_D00415_0281_BCBLUJANXX/P8352_119_S44_L005_R1_001_fastqc.zip
FastQC	all_sections	P8352_114_S9_L001_R2_001	/proj/data17/Skeletonema_marinoi_adaptation_to_warming_project/00_data/A.Godhe_17_01-P8352/P8352_114/02-FASTQ/171018_D00415_0281_BCBLUJANXX/P8352_114_S9_L001_R2_001_fastqc.zip
FastQC	all_sections	P8352_109_S42_L005_R2_001	/proj/data17/Skeletonema_marinoi_adaptation_to_warming_project/00_data/A.Godhe_17_01-P8352/P8352_109/02-FASTQ/171018_D00415_0281_BCBLUJANXX/P8352_109_S42_L005_R2_001_fastqc.zip
FastQC	all_sections	P8352_134_S36_L003_R2_001	/proj/data17/Skeletonema_marinoi_adaptation_to_warming_project/00_data/A.Godhe_17_01-P8352/P8352_134/02-FASTQ/171012_D00483_0240_BCBDHGANXX/P8352_134_S36_L003_R2_001_fastqc.zip
FastQC	all_sections	P8352_148_S38_L004_R2_001	/proj/data17/Skeletonema_marinoi_adaptation_to_warming_project/00_data/A.Godhe_17_01-P8352/P8352_148/02-FASTQ/171018_D00415_0281_BCBLUJANXX/P8352_148_S38_L004_R2_001_fastqc.zip
FastQC	all_sections	P8352_117_S31_L003_R2_001	/proj/data17/Skeletonema_marinoi_adaptation_to_warming_project/00_data/A.Godhe_17_01-P8352/P8352_117/02-FASTQ/171012_D00483_0240_BCBDHGANXX/P8352_117_S31_L003_R2_001_fastqc.zip
FastQC	all_sections	P8352_144_S24_L003_R2_001	/proj/data17/Skeletonema_marinoi_adaptation_to_warming_project/00_data/A.Godhe_17_01-P8352/P8352_144/02-FASTQ/171018_D00415_0281_BCBLUJANXX/P8352_144_S24_L003_R2_001_fastqc.zip
FastQC	all_sections	P8352_125_S15_L002_R2_001	/proj/data17/Skeletonema_marinoi_adaptation_to_warming_project/00_data/A.Godhe_17_01-P8352/P8352_125/02-FASTQ/171018_D00415_0281_BCBLUJANXX/P8352_125_S15_L002_R2_001_fastqc.zip
FastQC	all_sections	P8352_126_S46_L004_R2_001	/proj/data17/Skeletonema_marinoi_adaptation_to_warming_project/00_data/A.Godhe_17_01-P8352/P8352_126/02-FASTQ/171012_D00483_0240_BCBDHGANXX/P8352_126_S46_L004_R2_001_fastqc.zip
FastQC	all_sections	P8352_136_S19_L003_R1_001	/proj/data17/Skeletonema_marinoi_adaptation_to_warming_project/00_data/A.Godhe_17_01-P8352/P8352_136/02-FASTQ/171018_D00415_0281_BCBLUJANXX/P8352_136_S19_L003_R1_001_fastqc.zip
FastQC	all_sections	P8352_133_S35_L004_R1_001	/proj/data17/Skeletonema_marinoi_adaptation_to_warming_project/00_data/A.Godhe_17_01-P8352/P8352_133/02-FASTQ/171018_D00415_0281_BCBLUJANXX/P8352_133_S35_L004_R1_001_fastqc.zip
FastQC	all_sections	P8352_123_S14_L001_R1_001	/proj/data17/Skeletonema_marinoi_adaptation_to_warming_project/00_data/A.Godhe_17_01-P8352/P8352_123/02-FASTQ/171018_D00415_0281_BCBLUJANXX/P8352_123_S14_L001_R1_001_fastqc.zip
FastQC	all_sections	P8352_116_S10_L001_R1_001	/proj/data17/Skeletonema_marinoi_adaptation_to_warming_project/00_data/A.Godhe_17_01-P8352/P8352_116/02-FASTQ/171018_D00415_0281_BCBLUJANXX/P8352_116_S10_L001_R1_001_fastqc.zip
FastQC	all_sections	P8352_115_S43_L004_R2_001	/proj/data17/Skeletonema_marinoi_adaptation_to_warming_project/00_data/A.Godhe_17_01-P8352/P8352_115/02-FASTQ/171012_D00483_0240_BCBDHGANXX/P8352_115_S43_L004_R2_001_fastqc.zip
FastQC	all_sections	P8352_102_S1_L001_R1_001	/proj/data17/Skeletonema_marinoi_adaptation_to_warming_project/00_data/A.Godhe_17_01-P8352/P8352_102/02-FASTQ/171018_D00415_0281_BCBLUJANXX/P8352_102_S1_L001_R1_001_fastqc.zip
FastQC	all_sections	P8352_150_S39_L004_R1_001	/proj/data17/Skeletonema_marinoi_adaptation_to_warming_project/00_data/A.Godhe_17_01-P8352/P8352_150/02-FASTQ/171018_D00415_0281_BCBLUJANXX/P8352_150_S39_L004_R1_001_fastqc.zip
FastQC	all_sections	P8352_146_S26_L003_R1_001	/proj/data17/Skeletonema_marinoi_adaptation_to_warming_project/00_data/A.Godhe_17_01-P8352/P8352_146/02-FASTQ/171018_D00415_0281_BCBLUJANXX/P8352_146_S26_L003_R1_001_fastqc.zip
FastQC	all_sections	P8352_132_S18_L003_R2_001	/proj/data17/Skeletonema_marinoi_adaptation_to_warming_project/00_data/A.Godhe_17_01-P8352/P8352_132/02-FASTQ/171018_D00415_0281_BCBLUJANXX/P8352_132_S18_L003_R2_001_fastqc.zip
FastQC	all_sections	P8352_103_S40_L005_R1_001	/proj/data17/Skeletonema_marinoi_adaptation_to_warming_project/00_data/A.Godhe_17_01-P8352/P8352_103/02-FASTQ/171018_D00415_0281_BCBLUJANXX/P8352_103_S40_L005_R1_001_fastqc.zip
FastQC	all_sections	P8352_128_S17_L001_R2_001	/proj/data17/Skeletonema_marinoi_adaptation_to_warming_project/00_data/A.Godhe_17_01-P8352/P8352_128/02-FASTQ/171018_D00415_0281_BCBLUJANXX/P8352_128_S17_L001_R2_001_fastqc.zip
FastQC	all_sections	P8352_132_S18_L002_R2_001	/proj/data17/Skeletonema_marinoi_adaptation_to_warming_project/00_data/A.Godhe_17_01-P8352/P8352_132/02-FASTQ/171012_D00483_0240_BCBDHGANXX/P8352_132_S18_L002_R2_001_fastqc.zip
FastQC	all_sections	P8352_137_S20_L003_R2_001	/proj/data17/Skeletonema_marinoi_adaptation_to_warming_project/00_data/A.Godhe_17_01-P8352/P8352_137/02-FASTQ/171018_D00415_0281_BCBLUJANXX/P8352_137_S20_L003_R2_001_fastqc.zip
FastQC	all_sections	P8352_136_S19_L002_R1_001	/proj/data17/Skeletonema_marinoi_adaptation_to_warming_project/00_data/A.Godhe_17_01-P8352/P8352_136/02-FASTQ/171012_D00483_0240_BCBDHGANXX/P8352_136_S19_L002_R1_001_fastqc.zip
FastQC	all_sections	P8352_137_S20_L002_R2_001	/proj/data17/Skeletonema_marinoi_adaptation_to_warming_project/00_data/A.Godhe_17_01-P8352/P8352_137/02-FASTQ/171012_D00483_0240_BCBDHGANXX/P8352_137_S20_L002_R2_001_fastqc.zip
FastQC	all_sections	P8352_107_S4_L002_R2_001	/proj/data17/Skeletonema_marinoi_adaptation_to_warming_project/00_data/A.Godhe_17_01-P8352/P8352_107/02-FASTQ/171018_D00415_0281_BCBLUJANXX/P8352_107_S4_L002_R2_001_fastqc.zip
FastQC	all_sections	P8352_117_S31_L004_R2_001	/proj/data17/Skeletonema_marinoi_adaptation_to_warming_project/00_data/A.Godhe_17_01-P8352/P8352_117/02-FASTQ/171018_D00415_0281_BCBLUJANXX/P8352_117_S31_L004_R2_001_fastqc.zip
FastQC	all_sections	P8352_142_S22_L003_R1_001	/proj/data17/Skeletonema_marinoi_adaptation_to_warming_project/00_data/A.Godhe_17_01-P8352/P8352_142/02-FASTQ/171018_D00415_0281_BCBLUJANXX/P8352_142_S22_L003_R1_001_fastqc.zip
FastQC	all_sections	P8352_123_S14_L001_R2_001	/proj/data17/Skeletonema_marinoi_adaptation_to_warming_project/00_data/A.Godhe_17_01-P8352/P8352_123/02-FASTQ/171018_D00415_0281_BCBLUJANXX/P8352_123_S14_L001_R2_001_fastqc.zip
FastQC	all_sections	P8352_136_S19_L003_R2_001	/proj/data17/Skeletonema_marinoi_adaptation_to_warming_project/00_data/A.Godhe_17_01-P8352/P8352_136/02-FASTQ/171018_D00415_0281_BCBLUJANXX/P8352_136_S19_L003_R2_001_fastqc.zip
FastQC	all_sections	P8352_104_S2_L002_R2_001	/proj/data17/Skeletonema_marinoi_adaptation_to_warming_project/00_data/A.Godhe_17_01-P8352/P8352_104/02-FASTQ/171018_D00415_0281_BCBLUJANXX/P8352_104_S2_L002_R2_001_fastqc.zip
FastQC	all_sections	P8352_127_S16_L002_R2_001	/proj/data17/Skeletonema_marinoi_adaptation_to_warming_project/00_data/A.Godhe_17_01-P8352/P8352_127/02-FASTQ/171018_D00415_0281_BCBLUJANXX/P8352_127_S16_L002_R2_001_fastqc.zip
FastQC	all_sections	P8352_139_S48_L005_R1_001	/proj/data17/Skeletonema_marinoi_adaptation_to_warming_project/00_data/A.Godhe_17_01-P8352/P8352_139/02-FASTQ/171018_D00415_0281_BCBLUJANXX/P8352_139_S48_L005_R1_001_fastqc.zip
FastQC	all_sections	P8352_136_S19_L002_R2_001	/proj/data17/Skeletonema_marinoi_adaptation_to_warming_project/00_data/A.Godhe_17_01-P8352/P8352_136/02-FASTQ/171012_D00483_0240_BCBDHGANXX/P8352_136_S19_L002_R2_001_fastqc.zip
FastQC	all_sections	P8352_146_S26_L002_R1_001	/proj/data17/Skeletonema_marinoi_adaptation_to_warming_project/00_data/A.Godhe_17_01-P8352/P8352_146/02-FASTQ/171012_D00483_0240_BCBDHGANXX/P8352_146_S26_L002_R1_001_fastqc.zip
FastQC	all_sections	P8352_106_S3_L002_R1_001	/proj/data17/Skeletonema_marinoi_adaptation_to_warming_project/00_data/A.Godhe_17_01-P8352/P8352_106/02-FASTQ/171018_D00415_0281_BCBLUJANXX/P8352_106_S3_L002_R1_001_fastqc.zip
FastQC	all_sections	P8352_141_S50_L005_R2_001	/proj/data17/Skeletonema_marinoi_adaptation_to_warming_project/00_data/A.Godhe_17_01-P8352/P8352_141/02-FASTQ/171018_D00415_0281_BCBLUJANXX/P8352_141_S50_L005_R2_001_fastqc.zip
FastQC	all_sections	P8352_134_S36_L004_R1_001	/proj/data17/Skeletonema_marinoi_adaptation_to_warming_project/00_data/A.Godhe_17_01-P8352/P8352_134/02-FASTQ/171018_D00415_0281_BCBLUJANXX/P8352_134_S36_L004_R1_001_fastqc.zip
FastQC	all_sections	P8352_103_S40_L005_R2_001	/proj/data17/Skeletonema_marinoi_adaptation_to_warming_project/00_data/A.Godhe_17_01-P8352/P8352_103/02-FASTQ/171018_D00415_0281_BCBLUJANXX/P8352_103_S40_L005_R2_001_fastqc.zip
FastQC	all_sections	P8352_147_S27_L003_R2_001	/proj/data17/Skeletonema_marinoi_adaptation_to_warming_project/00_data/A.Godhe_17_01-P8352/P8352_147/02-FASTQ/171018_D00415_0281_BCBLUJANXX/P8352_147_S27_L003_R2_001_fastqc.zip
FastQC	all_sections	P8352_125_S15_L001_R1_001	/proj/data17/Skeletonema_marinoi_adaptation_to_warming_project/00_data/A.Godhe_17_01-P8352/P8352_125/02-FASTQ/171018_D00415_0281_BCBLUJANXX/P8352_125_S15_L001_R1_001_fastqc.zip
FastQC	all_sections	P8352_144_S24_L002_R1_001	/proj/data17/Skeletonema_marinoi_adaptation_to_warming_project/00_data/A.Godhe_17_01-P8352/P8352_144/02-FASTQ/171012_D00483_0240_BCBDHGANXX/P8352_144_S24_L002_R1_001_fastqc.zip
FastQC	all_sections	P8352_102_S1_L002_R2_001	/proj/data17/Skeletonema_marinoi_adaptation_to_warming_project/00_data/A.Godhe_17_01-P8352/P8352_102/02-FASTQ/171018_D00415_0281_BCBLUJANXX/P8352_102_S1_L002_R2_001_fastqc.zip
FastQC	all_sections	P8352_139_S48_L005_R2_001	/proj/data17/Skeletonema_marinoi_adaptation_to_warming_project/00_data/A.Godhe_17_01-P8352/P8352_139/02-FASTQ/171018_D00415_0281_BCBLUJANXX/P8352_139_S48_L005_R2_001_fastqc.zip
FastQC	all_sections	P8352_131_S47_L005_R2_001	/proj/data17/Skeletonema_marinoi_adaptation_to_warming_project/00_data/A.Godhe_17_01-P8352/P8352_131/02-FASTQ/171018_D00415_0281_BCBLUJANXX/P8352_131_S47_L005_R2_001_fastqc.zip
FastQC	all_sections	P8352_131_S47_L005_R1_001	/proj/data17/Skeletonema_marinoi_adaptation_to_warming_project/00_data/A.Godhe_17_01-P8352/P8352_131/02-FASTQ/171018_D00415_0281_BCBLUJANXX/P8352_131_S47_L005_R1_001_fastqc.zip
FastQC	all_sections	P8352_118_S11_L001_R2_001	/proj/data17/Skeletonema_marinoi_adaptation_to_warming_project/00_data/A.Godhe_17_01-P8352/P8352_118/02-FASTQ/171018_D00415_0281_BCBLUJANXX/P8352_118_S11_L001_R2_001_fastqc.zip
FastQC	all_sections	P8352_149_S28_L003_R1_001	/proj/data17/Skeletonema_marinoi_adaptation_to_warming_project/00_data/A.Godhe_17_01-P8352/P8352_149/02-FASTQ/171018_D00415_0281_BCBLUJANXX/P8352_149_S28_L003_R1_001_fastqc.zip
FastQC	all_sections	P8352_144_S24_L003_R1_001	/proj/data17/Skeletonema_marinoi_adaptation_to_warming_project/00_data/A.Godhe_17_01-P8352/P8352_144/02-FASTQ/171018_D00415_0281_BCBLUJANXX/P8352_144_S24_L003_R1_001_fastqc.zip
FastQC	all_sections	P8352_133_S35_L003_R2_001	/proj/data17/Skeletonema_marinoi_adaptation_to_warming_project/00_data/A.Godhe_17_01-P8352/P8352_133/02-FASTQ/171012_D00483_0240_BCBDHGANXX/P8352_133_S35_L003_R2_001_fastqc.zip
FastQC	all_sections	P8352_110_S5_L001_R2_001	/proj/data17/Skeletonema_marinoi_adaptation_to_warming_project/00_data/A.Godhe_17_01-P8352/P8352_110/02-FASTQ/171018_D00415_0281_BCBLUJANXX/P8352_110_S5_L001_R2_001_fastqc.zip
FastQC	all_sections	P8352_124_S32_L003_R1_001	/proj/data17/Skeletonema_marinoi_adaptation_to_warming_project/00_data/A.Godhe_17_01-P8352/P8352_124/02-FASTQ/171012_D00483_0240_BCBDHGANXX/P8352_124_S32_L003_R1_001_fastqc.zip
FastQC	all_sections	P8352_140_S49_L004_R1_001	/proj/data17/Skeletonema_marinoi_adaptation_to_warming_project/00_data/A.Godhe_17_01-P8352/P8352_140/02-FASTQ/171012_D00483_0240_BCBDHGANXX/P8352_140_S49_L004_R1_001_fastqc.zip
FastQC	all_sections	P8352_126_S46_L005_R2_001	/proj/data17/Skeletonema_marinoi_adaptation_to_warming_project/00_data/A.Godhe_17_01-P8352/P8352_126/02-FASTQ/171018_D00415_0281_BCBLUJANXX/P8352_126_S46_L005_R2_001_fastqc.zip
FastQC	all_sections	P8352_104_S2_L001_R1_001	/proj/data17/Skeletonema_marinoi_adaptation_to_warming_project/00_data/A.Godhe_17_01-P8352/P8352_104/02-FASTQ/171018_D00415_0281_BCBLUJANXX/P8352_104_S2_L001_R1_001_fastqc.zip
FastQC	all_sections	P8352_142_S22_L003_R2_001	/proj/data17/Skeletonema_marinoi_adaptation_to_warming_project/00_data/A.Godhe_17_01-P8352/P8352_142/02-FASTQ/171018_D00415_0281_BCBLUJANXX/P8352_142_S22_L003_R2_001_fastqc.zip
FastQC	all_sections	P8352_115_S43_L004_R1_001	/proj/data17/Skeletonema_marinoi_adaptation_to_warming_project/00_data/A.Godhe_17_01-P8352/P8352_115/02-FASTQ/171012_D00483_0240_BCBDHGANXX/P8352_115_S43_L004_R1_001_fastqc.zip
FastQC	all_sections	P8352_107_S4_L001_R1_001	/proj/data17/Skeletonema_marinoi_adaptation_to_warming_project/00_data/A.Godhe_17_01-P8352/P8352_107/02-FASTQ/171018_D00415_0281_BCBLUJANXX/P8352_107_S4_L001_R1_001_fastqc.zip
