Sample	bp_processed	r_with_adapters	quality_trimmed	r_processed	percent_trimmed	bp_written
P8352_101_S29_L003_R1_001	1819201356	1876654	7391446	14438106	5.76964774426	1714239846
P8352_101_S29_L003_R2_001	1819201356	1789070	13136804	14438106	5.80765310291	1713548452
P8352_101_S29_L004_R1_001	1958569326	2716405	6251621	15544201	7.4257555793	1813130755
P8352_101_S29_L004_R2_001	1958569326	2628201	15863909	15544201	7.8088168731	1805628234
P8352_102_S1_L001_R1_001	1251904248	133136	2094999	9935748	0.704995690693	1243078377
P8352_102_S1_L001_R2_001	1251904248	131969	3249506	9935748	0.7873642905	1242047201
P8352_102_S1_L002_R1_001	1293551406	143076	1893357	10266281	0.693588902489	1284579477
P8352_102_S1_L002_R2_001	1293551406	142462	2869282	10266281	0.767267613329	1283626405
P8352_103_S40_L004_R1_001	2899038870	366996	7629166	23008245	1.30854830518	2861103546
P8352_103_S40_L004_R2_001	2899038870	360633	10671930	23008245	1.35409557306	2859783113
P8352_103_S40_L005_R1_001	2783139660	404463	3748768	22088410	1.25911845186	2748096635
P8352_103_S40_L005_R2_001	2783139660	400832	6457762	22088410	1.33741581621	2745917510
P8352_104_S2_L001_R1_001	1473031854	63406	2250125	11690729	0.371322044744	1467562162
P8352_104_S2_L001_R2_001	1473031854	61963	3571369	11690729	0.454888940915	1466331195
P8352_104_S2_L002_R1_001	1581390972	82310	2171457	12550722	0.399660938497	1575070770
P8352_104_S2_L002_R2_001	1581390972	80930	3303445	12550722	0.469528986283	1573965883
P8352_105_S30_L003_R1_001	2038836240	221492	4764361	16181240	0.792879471281	2022670726
P8352_105_S30_L003_R2_001	2038836240	214679	5986237	16181240	0.831787696691	2021877451
P8352_105_S30_L004_R1_001	2064337884	336149	2573952	16383634	0.955848756782	2044605936
P8352_105_S30_L004_R2_001	2064337884	329280	5080695	16383634	1.0670479465	2042310409
P8352_106_S3_L001_R1_001	1331975988	127989	2205457	10571238	0.667078917342	1323090657
P8352_106_S3_L001_R2_001	1331975988	121278	3824974	10571238	0.759044539172	1321865697
P8352_106_S3_L002_R1_001	1434853728	160025	2239707	11387728	0.733191460196	1424333503
P8352_106_S3_L002_R2_001	1434853728	156920	3665307	11387728	0.82297887022	1423045185
P8352_107_S4_L001_R1_001	1410583104	134004	2249762	11195104	0.705336464884	1400633747
P8352_107_S4_L001_R2_001	1410583104	129371	3824552	11195104	0.785930723866	1399496898
P8352_107_S4_L002_R1_001	1540670418	170427	2276591	12227543	0.766222604269	1528865453
P8352_107_S4_L002_R2_001	1540670418	166744	3771559	12227543	0.85003060012	1527574248
P8352_108_S41_L004_R1_001	2560311558	295095	6872169	20319933	0.941739684948	2536200088
P8352_108_S41_L004_R2_001	2560311558	285673	9770893	20319933	1.02443137899	2534082923
P8352_108_S41_L005_R1_001	2437154622	373647	3444302	19342497	1.00058239144	2412768882
P8352_108_S41_L005_R2_001	2437154622	368726	5956598	19342497	1.09545950671	2410456580
P8352_109_S42_L004_R1_001	1650459510	131546	4293287	13098885	0.635955861771	1639963316
P8352_109_S42_L004_R2_001	1650459510	129777	5724469	13098885	0.713943900387	1638676155
P8352_109_S42_L005_R1_001	1499093820	144173	1862084	11897570	0.578025863651	1490428670
P8352_109_S42_L005_R2_001	1499093820	143497	3142504	11897570	0.663792143443	1489142953
P8352_110_S5_L001_R1_001	1232651196	100409	1892893	9782946	0.50294844317	1226451596
P8352_110_S5_L001_R2_001	1232651196	97855	3274082	9782946	0.599834488783	1225257329
P8352_110_S5_L002_R1_001	1338547140	137999	1822807	10623390	0.59261782891	1330614671
P8352_110_S5_L002_R2_001	1338547140	136109	3249546	10623390	0.691742690511	1329287838
P8352_111_S6_L001_R1_001	1239103782	72177	1864611	9834157	0.426693879625	1233816602
P8352_111_S6_L001_R2_001	1239103782	70493	3014379	9834157	0.51121964859	1232769240
P8352_111_S6_L002_R1_001	1336003956	95293	1724514	10603206	0.472689019493	1329688812
P8352_111_S6_L002_R2_001	1336003956	94012	2824074	10603206	0.551006227709	1328642491
P8352_112_S7_L001_R1_001	1339944102	174788	2409725	10634477	0.831310349691	1328805008
P8352_112_S7_L001_R2_001	1339944102	167766	3737747	10634477	0.903332757085	1327839948
P8352_112_S7_L002_R1_001	1485807498	248455	2381676	11792123	0.993307680831	1471048858
P8352_112_S7_L002_R2_001	1485807498	243120	3874996	11792123	1.08436880428	1469695865
P8352_113_S8_L001_R1_001	1206946566	122818	1872725	9578941	0.653517000851	1199058965
P8352_113_S8_L001_R2_001	1206946566	115430	3308145	9578941	0.735298914633	1198071901
P8352_113_S8_L002_R1_001	1316635362	156857	1794166	10449487	0.718871851172	1307170441
P8352_113_S8_L002_R2_001	1316635362	153189	3207344	10449487	0.812909580656	1305932307
P8352_114_S9_L001_R1_001	1230004440	71486	1810788	9761940	0.423167984662	1224799455
P8352_114_S9_L001_R2_001	1230004440	68679	3107249	9761940	0.51214026512	1223705092
P8352_114_S9_L002_R1_001	1350714582	91866	1734876	10719957	0.453268002107	1344592225
P8352_114_S9_L002_R2_001	1350714582	90030	3048650	10719957	0.543186702637	1343377680
P8352_115_S43_L004_R1_001	2009572110	617889	6461299	15948985	1.82643632529	1972868555
P8352_115_S43_L004_R2_001	2009572110	562107	9708363	15948985	1.81804175218	1973037250
P8352_115_S43_L005_R1_001	1987151292	905162	3949254	15771042	2.4422592379	1938619906
P8352_115_S43_L005_R2_001	1987151292	878893	7798223	15771042	2.59059203027	1935672309
P8352_116_S10_L001_R1_001	1115923284	55511	1779425	8856534	0.355347545558	1111957878
P8352_116_S10_L001_R2_001	1115923284	54441	2678792	8856534	0.434794763186	1111071308
P8352_116_S10_L002_R1_001	1163684088	63537	1548282	9235588	0.352094356385	1159586822
P8352_116_S10_L002_R2_001	1163684088	63203	2412873	9235588	0.428515526802	1158697521
P8352_117_S31_L003_R1_001	1379091672	216391	3559104	10945172	1.04584215051	1364668550
P8352_117_S31_L003_R2_001	1379091672	211691	4643607	10945172	1.0978126623	1363951829
P8352_117_S31_L004_R1_001	1405303452	347626	2127131	11153202	1.3933601296	1385722514
P8352_117_S31_L004_R2_001	1405303452	342958	4318870	11153202	1.54812207776	1383547639
P8352_118_S11_L001_R1_001	1208217654	87816	1815390	9589029	0.482740670167	1202385096
P8352_118_S11_L001_R2_001	1208217654	85623	2836784	9589029	0.557215082706	1201485283
P8352_118_S11_L002_R1_001	1309849254	118715	1692258	10395629	0.551521786033	1302625150
P8352_118_S11_L002_R2_001	1309849254	116706	2698219	10395629	0.622722956485	1301692522
P8352_119_S44_L004_R1_001	1914286500	410945	5479370	15192750	1.23315292669	1890680420
P8352_119_S44_L004_R2_001	1914286500	390588	7348858	15192750	1.26677924125	1890036716
P8352_119_S44_L005_R1_001	1879971282	567575	2949413	14920407	1.54445369873	1850935996
P8352_119_S44_L005_R2_001	1879971282	557073	5354441	14920407	1.66304444644	1848706524
P8352_120_S12_L001_R1_001	1483626816	190666	2475440	11774816	0.767926130556	1472233658
P8352_120_S12_L001_R2_001	1483626816	179247	3996463	11774816	0.828222762455	1471339081
P8352_120_S12_L002_R1_001	1622143656	245998	2335712	12874156	0.858740959746	1608213644
P8352_120_S12_L002_R2_001	1622143656	239932	3909053	12874156	0.938692509981	1606916715
P8352_121_S13_L001_R1_001	1500251508	74004	2248370	11906758	0.361514117538	1494827887
P8352_121_S13_L001_R2_001	1500251508	71461	3688736	11906758	0.445969956659	1493560837
P8352_121_S13_L002_R1_001	1646520120	98688	2161284	13067620	0.395593465326	1640006594
P8352_121_S13_L002_R2_001	1646520120	97032	3586606	13067620	0.477799870432	1638653049
P8352_122_S45_L004_R1_001	2164005144	502829	6387991	17174644	1.38164001518	2134106383
P8352_122_S45_L004_R2_001	2164005144	465316	9062994	17174644	1.39960106306	2133717705
P8352_122_S45_L005_R1_001	2117986920	695166	3585874	16809420	1.73539074547	2081231571
P8352_122_S45_L005_R2_001	2117986920	679624	6833849	16809420	1.87545511376	2078265026
P8352_123_S14_L001_R1_001	997190586	70745	1645433	7914211	0.425327521092	992949260
P8352_123_S14_L001_R2_001	997190586	70271	2386619	7914211	0.498172573001	992222856
P8352_123_S14_L002_R1_001	1037537172	78820	1410357	8234422	0.416360311378	1033217279
P8352_123_S14_L002_R2_001	1037537172	78642	2108080	8234422	0.486065091073	1032494066
P8352_124_S32_L003_R1_001	2357236728	263125	5719593	18708228	0.835314322321	2337546392
P8352_124_S32_L003_R2_001	2357236728	252889	6947840	18708228	0.858177999677	2337007441
P8352_124_S32_L004_R1_001	2421861372	382380	3167221	19221122	0.951835528925	2398809235
P8352_124_S32_L004_R2_001	2421861372	371035	6047523	19221122	1.05487871004	2396313672
P8352_125_S15_L001_R1_001	1345608054	54256	2044827	10679429	0.316421337353	1341350263
P8352_125_S15_L001_R2_001	1345608054	53235	2781317	10679429	0.366792691626	1340672462
P8352_125_S15_L002_R1_001	1470228228	73055	1739971	11668478	0.329593114029	1465382457
P8352_125_S15_L002_R2_001	1470228228	71944	2511369	11668478	0.380626891351	1464632144
P8352_126_S46_L004_R1_001	2133683244	338611	6034275	16933994	1.04694846636	2111344680
P8352_126_S46_L004_R2_001	2133683244	317687	8018551	16933994	1.07626748556	2110719105
P8352_126_S46_L005_R1_001	2077349022	489073	3172876	16486897	1.29938299795	2050356302
P8352_126_S46_L005_R2_001	2077349022	479394	5851866	16486897	1.42370389794	2047773723
P8352_127_S16_L001_R1_001	1362073230	151575	2210344	10810105	0.653783350547	1353168222
P8352_127_S16_L001_R2_001	1362073230	143636	3417453	10810105	0.711326585576	1352384441
P8352_127_S16_L002_R1_001	1487978226	192591	2040173	11809351	0.721114181143	1477248204
P8352_127_S16_L002_R2_001	1487978226	188903	3303415	11809351	0.797903812875	1476105591
P8352_128_S17_L001_R1_001	1560446118	113465	2277633	12384493	0.443498748221	1553525559
P8352_128_S17_L001_R2_001	1560446118	110263	3646177	12384493	0.51647493028	1552386805
P8352_128_S17_L002_R1_001	1717125984	147337	2151477	13627984	0.487429406927	1708756207
P8352_128_S17_L002_R2_001	1717125984	144623	3585617	13627984	0.565787489708	1707410700
P8352_129_S33_L003_R1_001	1835705214	633485	5255403	14569089	2.04052070639	1798247269
P8352_129_S33_L003_R2_001	1835705214	604847	7636916	14569089	2.09575664473	1797233300
P8352_129_S33_L004_R1_001	1925103474	971918	3522860	15278599	2.73253743035	1872499301
P8352_129_S33_L004_R2_001	1925103474	939602	8283790	15278599	2.95289737761	1868257144
P8352_130_S34_L003_R1_001	1787645412	76908	4076704	14187662	0.459695694954	1779427683
P8352_130_S34_L003_R2_001	1787645412	76154	4781091	14187662	0.494649886417	1778802826
P8352_130_S34_L004_R1_001	1746232740	96170	1961051	13858990	0.400472906034	1739239551
P8352_130_S34_L004_R2_001	1746232740	95882	3747302	13858990	0.504008417572	1737431580
P8352_131_S47_L004_R1_001	2000946906	131111	5311938	15880531	0.579070187483	1989360019
P8352_131_S47_L004_R2_001	2000946906	128146	6978015	15880531	0.650072221357	1987939306
P8352_131_S47_L005_R1_001	1936342044	200188	2597020	15367794	0.636963703712	1924008248
P8352_131_S47_L005_R2_001	1936342044	198261	4405690	15367794	0.730358566753	1922199804
P8352_132_S18_L002_R1_001	1587546576	70864	2913392	12599576	0.359139573364	1581845068
P8352_132_S18_L002_R2_001	1587546576	69744	3612563	12599576	0.400633159124	1581186338
P8352_132_S18_L003_R1_001	1701693000	94605	2205870	13505500	0.360978037754	1695550262
P8352_132_S18_L003_R2_001	1701693000	93044	3172844	13505500	0.41634789589	1694608037
P8352_133_S35_L003_R1_001	2279990412	533689	5855791	18095162	1.46258825583	2246643540
P8352_133_S35_L003_R2_001	2279990412	510762	8003788	18095162	1.49207184473	2245971317
P8352_133_S35_L004_R1_001	2326752414	702000	3444454	18466289	1.6872042665	2287495348
P8352_133_S35_L004_R2_001	2326752414	683156	7053689	18466289	1.81208983587	2284589570
P8352_134_S36_L003_R1_001	2239774362	502304	5760942	17775987	1.89891748569	2197242895
P8352_134_S36_L003_R2_001	2239774362	484365	7929435	17775987	1.93216587948	2196498206
P8352_134_S36_L004_R1_001	2272960116	598494	3423042	18039366	1.96146050633	2228376901
P8352_134_S36_L004_R2_001	2272960116	585341	6714366	18039366	2.07564249227	2225781590
P8352_135_S37_L003_R1_001	1774662876	275561	4170382	14084626	0.958903306658	1757645575
P8352_135_S37_L003_R2_001	1774662876	269729	5385691	14084626	1.00175381141	1756885123
P8352_135_S37_L004_R1_001	1819294974	364588	2292662	14438849	1.07891932207	1799666249
P8352_135_S37_L004_R2_001	1819294974	358247	4824849	14438849	1.21262160976	1797233810
P8352_136_S19_L002_R1_001	1927687356	538439	4038444	15299106	1.52844359892	1898223742
P8352_136_S19_L002_R2_001	1927687356	516659	6148922	15299106	1.5722246611	1897379780
P8352_136_S19_L003_R1_001	2128105350	844628	3986765	16889725	2.09786601965	2083460551
P8352_136_S19_L003_R2_001	2128105350	820559	7162064	16889725	2.19174544155	2081462698
P8352_137_S20_L002_R1_001	1691351172	107592	3236147	13423422	0.456414145554	1683631606
P8352_137_S20_L002_R2_001	1691351172	106581	3898755	13423422	0.492531896268	1683020728
P8352_137_S20_L003_R1_001	1774807398	124822	2312148	14085773	0.426850767499	1767231619
P8352_137_S20_L003_R2_001	1774807398	124152	3350840	14085773	0.48523406031	1766195428
P8352_138_S21_L002_R1_001	2209491900	164780	3767724	17535650	0.477971473894	2198931159
P8352_138_S21_L002_R2_001	2209491900	162110	5269314	17535650	0.533786025647	2197697941
P8352_138_S21_L003_R1_001	2368875726	227014	2998357	18800601	0.539517875916	2356095218
P8352_138_S21_L003_R2_001	2368875726	223232	5089899	18800601	0.619439713065	2354201969
P8352_139_S48_L004_R1_001	2102115834	225101	5526918	16683459	0.803438693855	2085226622
P8352_139_S48_L004_R2_001	2102115834	218372	7473910	16683459	0.873250498526	2083759097
P8352_139_S48_L005_R1_001	2010193542	298507	2683129	15953917	0.882370808054	1992456181
P8352_139_S48_L005_R2_001	2010193542	294707	4605961	15953917	0.974965424498	1990594850
P8352_140_S49_L004_R1_001	2064210246	898099	6829087	16382621	2.45705838823	2013491395
P8352_140_S49_L004_R2_001	2064210246	843688	10408737	16382621	2.45586902295	2013515946
P8352_140_S49_L005_R1_001	2047038336	1266257	4265069	16246336	3.24993214978	1980510979
P8352_140_S49_L005_R2_001	2047038336	1241408	8851087	16246336	3.43991701385	1976621916
P8352_141_S50_L004_R1_001	2240640612	559251	6238474	17782862	1.37978227452	2209724650
P8352_141_S50_L004_R2_001	2240640612	525816	9168426	17782862	1.4168627414	2208893810
P8352_141_S50_L005_R1_001	2165841468	700691	3335061	17189218	1.62559007758	2130633764
P8352_141_S50_L005_R2_001	2165841468	689414	6306238	17189218	1.74713443062	2128001306
P8352_142_S22_L002_R1_001	2053446318	299256	3747325	16297193	0.805341773731	2036909057
P8352_142_S22_L002_R2_001	2053446318	290288	5522559	16297193	0.855775378492	2035873430
P8352_142_S22_L003_R1_001	2202814782	382493	3276039	17482657	0.907290443269	2182828854
P8352_142_S22_L003_R2_001	2202814782	373482	5551985	17482657	0.985402911646	2181108181
P8352_143_S23_L002_R1_001	2543122260	269792	4682830	20183510	1.03012861049	2516924830
P8352_143_S23_L002_R2_001	2543122260	264625	6834716	20183510	1.07088976524	2515888224
P8352_143_S23_L003_R1_001	2703119832	298324	4017427	21453332	1.0018969074	2676037358
P8352_143_S23_L003_R2_001	2703119832	293689	6461105	21453332	1.07163684188	2674152204
P8352_144_S24_L002_R1_001	2256828714	196050	3914446	17911339	0.469396367313	2246235242
P8352_144_S24_L002_R2_001	2256828714	194804	5062404	17911339	0.51676323186	2245166253
P8352_144_S24_L003_R1_001	2372540814	223638	2878425	18829689	0.455175099045	2361741599
P8352_144_S24_L003_R2_001	2372540814	222543	4573808	18829689	0.522702662345	2360139480
P8352_145_S25_L002_R1_001	2195633034	189790	3761945	17425659	0.53514129265	2183883295
P8352_145_S25_L002_R2_001	2195633034	186247	5575021	17425659	0.602221400172	2182410462
P8352_145_S25_L003_R1_001	2367606906	269710	3013716	18790531	0.627062582153	2352760529
P8352_145_S25_L003_R2_001	2367606906	265894	5472848	18790531	0.722109694674	2350510187
P8352_146_S26_L002_R1_001	2788317630	214475	4860210	22129505	0.603386745433	2771493291
P8352_146_S26_L002_R2_001	2788317630	210845	6669037	22129505	0.647739117154	2770256606
P8352_146_S26_L003_R1_001	3000696300	248424	3882233	23815050	0.581771137586	2983239115
P8352_146_S26_L003_R2_001	3000696300	245059	6088087	23815050	0.645133397872	2981337806
P8352_147_S27_L002_R1_001	2000504772	349524	3913715	15877022	0.996417018294	1980571402
P8352_147_S27_L002_R2_001	2000504772	338052	5609224	15877022	1.04777660585	1979543951
P8352_147_S27_L003_R1_001	2188456578	512284	3454506	17368703	1.25427149325	2161007391
P8352_147_S27_L003_R2_001	2188456578	498914	6085432	17368703	1.351961437	2158869489
P8352_148_S38_L003_R1_001	2049004062	1625112	7358895	16261937	4.42264481953	1958383890
P8352_148_S38_L003_R2_001	2049004062	1539931	13304000	16261937	4.47409928073	1957329586
P8352_148_S38_L004_R1_001	2160208890	2327009	5969168	17144515	5.75301965358	2035931648
P8352_148_S38_L004_R2_001	2160208890	2258627	15328105	17144515	6.12802713723	2027830703
P8352_149_S28_L002_R1_001	2142987084	227021	3627751	17007834	0.617122384859	2129762231
P8352_149_S28_L002_R2_001	2142987084	220596	5562899	17007834	0.682978918038	2128350934
P8352_149_S28_L003_R1_001	2306827404	286808	3026219	18308154	0.669881369244	2291374397
P8352_149_S28_L003_R2_001	2306827404	280533	5478829	18308154	0.759465097806	2289307855
P8352_150_S39_L003_R1_001	2794990716	999923	7389432	22182466	1.85679983489	2743093333
P8352_150_S39_L003_R2_001	2794990716	957685	10287071	22182466	1.86854960559	2742764928
P8352_150_S39_L004_R1_001	2897898444	1350949	4688428	22999194	2.29763748753	2831315243
P8352_150_S39_L004_R2_001	2897898444	1312544	9891025	22999194	2.43151108852	2827435722
